
./octez-client --protocol PtParisBxoLz5gzMmn3d9WBQNoPSZakgnkMC2VNuQ3KXfUtUQeZ --mode mockup --no-base-dir-warnings run script michelson_test_scripts/opcodes/if_some.tz on storage '"?"' and input None --level 1 --trace-stack
storage
  ""
emitted operations
  
big_map diff
  
trace
  - location: 8 (just consumed gas: 6.151)
    [ (Pair None "?") ]
  - location: 8 (just consumed gas: 0.010)
    [ None ]
  - location: 10 (just consumed gas: 0.010)
    [  ]
  - location: 12 (just consumed gas: 0.010)
    [ "" ]
  - location: 10 (just consumed gas: 0.025)
    [ "" ]
  - location: 16 (just consumed gas: 0.010)
    [ {}
      "" ]
  - location: 18 (just consumed gas: 0.010)
    [ (Pair {} "") ]

