
./octez-client --protocol PtParisBxoLz5gzMmn3d9WBQNoPSZakgnkMC2VNuQ3KXfUtUQeZ --mode mockup --no-base-dir-warnings run script michelson_test_scripts/opcodes/list_concat.tz on storage '"abc"' and input '{ "d" ; "e" ; "f" }' --level 1 --trace-stack
storage
  "abcdef"
emitted operations
  
big_map diff
  
trace
  - location: 8 (just consumed gas: 5.942)
    [ (Pair { "d" ; "e" ; "f" } "abc") ]
  - location: 8 (just consumed gas: 0.010)
    [ { "d" ; "e" ; "f" }
      "abc" ]
  - location: 9 (just consumed gas: 0.010)
    [ "abc"
      { "d" ; "e" ; "f" } ]
  - location: 10 (just consumed gas: 0.010)
    [ { "abc" ; "d" ; "e" ; "f" } ]
  - location: 11 (just consumed gas: 0.143)
    [ "abcdef" ]
  - location: 12 (just consumed gas: 0.010)
    [ {}
      "abcdef" ]
  - location: 14 (just consumed gas: 0.010)
    [ (Pair {} "abcdef") ]

