
./octez-client --protocol PtParisBxoLz5gzMmn3d9WBQNoPSZakgnkMC2VNuQ3KXfUtUQeZ --mode mockup --no-base-dir-warnings run script michelson_test_scripts/opcodes/abs.tz on storage Unit and input 12039123919239192312931 --level 1 --trace-stack
storage
  Unit
emitted operations
  
big_map diff
  
trace
  - location: 7 (just consumed gas: 9.929)
    [ (Pair 12039123919239192312931 Unit) ]
  - location: 7 (just consumed gas: 0.010)
    [ 12039123919239192312931 ]
  - location: 8 (just consumed gas: 0.010)
    [ 12039123919239192312931
      12039123919239192312931 ]
  - location: 9 (just consumed gas: 0.030)
    [ -12039123919239192312931
      12039123919239192312931 ]
  - location: 10 (just consumed gas: 0.025)
    [ 12039123919239192312931
      12039123919239192312931 ]
  - location: 11 (just consumed gas: 0.035)
    [ 0 ]
  - location: 13 (just consumed gas: 0.010)
    [ True ]
  - location: 14 (just consumed gas: 0.010)
    [  ]
  - location: 14 (just consumed gas: 0.025)
    [  ]
  - location: 20 (just consumed gas: 0.010)
    [ Unit ]
  - location: 21 (just consumed gas: 0.010)
    [ {}
      Unit ]
  - location: 23 (just consumed gas: 0.010)
    [ (Pair {} Unit) ]

