
./octez-client --protocol PtParisBxoLz5gzMmn3d9WBQNoPSZakgnkMC2VNuQ3KXfUtUQeZ --mode mockup --no-base-dir-warnings run script michelson_test_scripts/opcodes/loop_left.tz on storage '{""}' and input '{ "c" ; "b" ; "a" }' --level 1 --trace-stack
storage
  { "a" ; "b" ; "c" }
emitted operations
  
big_map diff
  
trace
  - location: 9 (just consumed gas: 16.982)
    [ (Pair { "c" ; "b" ; "a" } { "" }) ]
  - location: 9 (just consumed gas: 0.010)
    [ { "c" ; "b" ; "a" } ]
  - location: 10 (just consumed gas: 0.010)
    [ {}
      { "c" ; "b" ; "a" } ]
  - location: 12 (just consumed gas: 0.010)
    [ { "c" ; "b" ; "a" }
      {} ]
  - location: 13 (just consumed gas: 0.010)
    [ (Pair { "c" ; "b" ; "a" } {}) ]
  - location: 14 (just consumed gas: 0.010)
    [ (Left (Pair { "c" ; "b" ; "a" } {})) ]
  - location: 41 (just consumed gas: 0.020)
    [ (Pair { "c" ; "b" ; "a" } {}) ]
  - location: 19 (just consumed gas: 0.010)
    [ (Pair { "c" ; "b" ; "a" } {})
      (Pair { "c" ; "b" ; "a" } {}) ]
  - location: 20 (just consumed gas: 0.010)
    [ { "c" ; "b" ; "a" }
      (Pair { "c" ; "b" ; "a" } {}) ]
  - location: 21 (just consumed gas: 0.010)
    [ (Pair { "c" ; "b" ; "a" } {}) ]
  - location: 23 (just consumed gas: 0.010)
    [ {} ]
  - location: 21 (just consumed gas: 0.035)
    [ { "c" ; "b" ; "a" }
      {} ]
  - location: 24 (just consumed gas: 0.010)
    [ "c"
      { "b" ; "a" }
      {} ]
  - location: 26 (just consumed gas: 0.010)
    [ { "b" ; "a" }
      "c"
      {} ]
  - location: 27 (just consumed gas: 0.010)
    [ "c"
      {} ]
  - location: 29 (just consumed gas: 0.010)
    [ { "c" } ]
  - location: 27 (just consumed gas: 0.035)
    [ { "b" ; "a" }
      { "c" } ]
  - location: 30 (just consumed gas: 0.010)
    [ (Pair { "b" ; "a" } { "c" }) ]
  - location: 31 (just consumed gas: 0.010)
    [ (Left (Pair { "b" ; "a" } { "c" })) ]
  - location: 24 (just consumed gas: 0.025)
    [ (Left (Pair { "b" ; "a" } { "c" })) ]
  - location: 41 (just consumed gas: 0.025)
    [ (Pair { "b" ; "a" } { "c" }) ]
  - location: 19 (just consumed gas: 0.010)
    [ (Pair { "b" ; "a" } { "c" })
      (Pair { "b" ; "a" } { "c" }) ]
  - location: 20 (just consumed gas: 0.010)
    [ { "b" ; "a" }
      (Pair { "b" ; "a" } { "c" }) ]
  - location: 21 (just consumed gas: 0.010)
    [ (Pair { "b" ; "a" } { "c" }) ]
  - location: 23 (just consumed gas: 0.010)
    [ { "c" } ]
  - location: 21 (just consumed gas: 0.035)
    [ { "b" ; "a" }
      { "c" } ]
  - location: 24 (just consumed gas: 0.010)
    [ "b"
      { "a" }
      { "c" } ]
  - location: 26 (just consumed gas: 0.010)
    [ { "a" }
      "b"
      { "c" } ]
  - location: 27 (just consumed gas: 0.010)
    [ "b"
      { "c" } ]
  - location: 29 (just consumed gas: 0.010)
    [ { "b" ; "c" } ]
  - location: 27 (just consumed gas: 0.035)
    [ { "a" }
      { "b" ; "c" } ]
  - location: 30 (just consumed gas: 0.010)
    [ (Pair { "a" } { "b" ; "c" }) ]
  - location: 31 (just consumed gas: 0.010)
    [ (Left (Pair { "a" } { "b" ; "c" })) ]
  - location: 24 (just consumed gas: 0.025)
    [ (Left (Pair { "a" } { "b" ; "c" })) ]
  - location: 41 (just consumed gas: 0.025)
    [ (Pair { "a" } { "b" ; "c" }) ]
  - location: 19 (just consumed gas: 0.010)
    [ (Pair { "a" } { "b" ; "c" })
      (Pair { "a" } { "b" ; "c" }) ]
  - location: 20 (just consumed gas: 0.010)
    [ { "a" }
      (Pair { "a" } { "b" ; "c" }) ]
  - location: 21 (just consumed gas: 0.010)
    [ (Pair { "a" } { "b" ; "c" }) ]
  - location: 23 (just consumed gas: 0.010)
    [ { "b" ; "c" } ]
  - location: 21 (just consumed gas: 0.035)
    [ { "a" }
      { "b" ; "c" } ]
  - location: 24 (just consumed gas: 0.010)
    [ "a"
      {}
      { "b" ; "c" } ]
  - location: 26 (just consumed gas: 0.010)
    [ {}
      "a"
      { "b" ; "c" } ]
  - location: 27 (just consumed gas: 0.010)
    [ "a"
      { "b" ; "c" } ]
  - location: 29 (just consumed gas: 0.010)
    [ { "a" ; "b" ; "c" } ]
  - location: 27 (just consumed gas: 0.035)
    [ {}
      { "a" ; "b" ; "c" } ]
  - location: 30 (just consumed gas: 0.010)
    [ (Pair {} { "a" ; "b" ; "c" }) ]
  - location: 31 (just consumed gas: 0.010)
    [ (Left (Pair {} { "a" ; "b" ; "c" })) ]
  - location: 24 (just consumed gas: 0.025)
    [ (Left (Pair {} { "a" ; "b" ; "c" })) ]
  - location: 41 (just consumed gas: 0.025)
    [ (Pair {} { "a" ; "b" ; "c" }) ]
  - location: 19 (just consumed gas: 0.010)
    [ (Pair {} { "a" ; "b" ; "c" })
      (Pair {} { "a" ; "b" ; "c" }) ]
  - location: 20 (just consumed gas: 0.010)
    [ {}
      (Pair {} { "a" ; "b" ; "c" }) ]
  - location: 21 (just consumed gas: 0.010)
    [ (Pair {} { "a" ; "b" ; "c" }) ]
  - location: 23 (just consumed gas: 0.010)
    [ { "a" ; "b" ; "c" } ]
  - location: 21 (just consumed gas: 0.035)
    [ {}
      { "a" ; "b" ; "c" } ]
  - location: 24 (just consumed gas: 0.010)
    [ { "a" ; "b" ; "c" } ]
  - location: 35 (just consumed gas: 0.010)
    [ (Right { "a" ; "b" ; "c" }) ]
  - location: 24 (just consumed gas: 0.025)
    [ (Right { "a" ; "b" ; "c" }) ]
  - location: 41 (just consumed gas: 0.035)
    [ { "a" ; "b" ; "c" } ]
  - location: 41 (just consumed gas: 0.010)
    [ {}
      { "a" ; "b" ; "c" } ]
  - location: 43 (just consumed gas: 0.010)
    [ (Pair {} { "a" ; "b" ; "c" }) ]

