
./octez-client --protocol PtParisBxoLz5gzMmn3d9WBQNoPSZakgnkMC2VNuQ3KXfUtUQeZ --mode mockup --no-base-dir-warnings run script michelson_test_scripts/opcodes/big_map_mem_nat.tz on storage '(Pair { Elt 0 1 } None)' and input 1 --level 1 --trace-stack
storage
  (Pair 4 (Some False))
emitted operations
  
big_map diff
  New map(4) of type (big_map nat nat)
  Set map(4)[0] to 1
trace
  - location: 12 (just consumed gas: 10.554)
    [ (Pair 1 { Elt 0 1 } None) ]
  - location: 12 (just consumed gas: 0.010)
    [ 1
      (Pair { Elt 0 1 } None) ]
  - location: 13 (just consumed gas: 0.010)
    [ (Pair { Elt 0 1 } None) ]
  - location: 15 (just consumed gas: 0.010)
    [ { Elt 0 1 } ]
  - location: 16 (just consumed gas: 0.010)
    [ { Elt 0 1 }
      { Elt 0 1 } ]
  - location: 13 (just consumed gas: 0.035)
    [ 1
      { Elt 0 1 }
      { Elt 0 1 } ]
  - location: 17 (just consumed gas: 0.723)
    [ False
      { Elt 0 1 } ]
  - location: 18 (just consumed gas: 0.010)
    [ (Some False)
      { Elt 0 1 } ]
  - location: 19 (just consumed gas: 0.010)
    [ { Elt 0 1 }
      (Some False) ]
  - location: 20 (just consumed gas: 0.010)
    [ (Pair { Elt 0 1 } (Some False)) ]
  - location: 21 (just consumed gas: 0.010)
    [ {}
      (Pair { Elt 0 1 } (Some False)) ]
  - location: 23 (just consumed gas: 0.010)
    [ (Pair {} { Elt 0 1 } (Some False)) ]

