
./octez-client --protocol PtParisBxoLz5gzMmn3d9WBQNoPSZakgnkMC2VNuQ3KXfUtUQeZ --mode mockup --no-base-dir-warnings run script michelson_test_scripts/opcodes/dign.tz on storage 0 and input '(Pair (Pair (Pair (Pair 1 2) 3) 4) 5)' --level 1 --trace-stack
storage
  5
emitted operations
  
big_map diff
  
trace
  - location: 15 (just consumed gas: 12.008)
    [ (Pair (Pair (Pair (Pair (Pair 1 2) 3) 4) 5) 0) ]
  - location: 15 (just consumed gas: 0.010)
    [ (Pair (Pair (Pair (Pair 1 2) 3) 4) 5) ]
  - location: 16 (just consumed gas: 0.010)
    [ (Pair (Pair (Pair 1 2) 3) 4)
      5 ]
  - location: 17 (just consumed gas: 0.010)
    [ (Pair (Pair 1 2) 3)
      4
      5 ]
  - location: 18 (just consumed gas: 0.010)
    [ (Pair 1 2)
      3
      4
      5 ]
  - location: 19 (just consumed gas: 0.010)
    [ 1
      2
      3
      4
      5 ]
  - location: 20 (just consumed gas: 0.057)
    [ 5
      1
      2
      3
      4 ]
  - location: 22 (just consumed gas: 0.010)
    [ 1
      2
      3
      4 ]
  - location: 24 (just consumed gas: 0.010)
    [ 2
      3
      4 ]
  - location: 25 (just consumed gas: 0.010)
    [ 3
      4 ]
  - location: 26 (just consumed gas: 0.010)
    [ 4 ]
  - location: 27 (just consumed gas: 0.010)
    [  ]
  - location: 22 (just consumed gas: 0.035)
    [ 5 ]
  - location: 28 (just consumed gas: 0.010)
    [ {}
      5 ]
  - location: 30 (just consumed gas: 0.010)
    [ (Pair {} 5) ]

