
./octez-client --protocol PtParisBxoLz5gzMmn3d9WBQNoPSZakgnkMC2VNuQ3KXfUtUQeZ --mode mockup --no-base-dir-warnings run script michelson_test_scripts/opcodes/bls12_381_fr_z_nat.tz on storage 0x0100000000000000000000000000000000000000000000000000000000000000 and input 1 --level 1 --trace-stack
storage
  0x0100000000000000000000000000000000000000000000000000000000000000
emitted operations
  
big_map diff
  
trace
  - location: 7 (just consumed gas: 4.278)
    [ (Pair 1 0x0100000000000000000000000000000000000000000000000000000000000000) ]
  - location: 7 (just consumed gas: 0.010)
    [ 1
      0x0100000000000000000000000000000000000000000000000000000000000000 ]
  - location: 8 (just consumed gas: 0.266)
    [ 0x0100000000000000000000000000000000000000000000000000000000000000 ]
  - location: 9 (just consumed gas: 0.010)
    [ {}
      0x0100000000000000000000000000000000000000000000000000000000000000 ]
  - location: 11 (just consumed gas: 0.010)
    [ (Pair {} 0x0100000000000000000000000000000000000000000000000000000000000000) ]

