
./octez-client --protocol PtParisBxoLz5gzMmn3d9WBQNoPSZakgnkMC2VNuQ3KXfUtUQeZ --mode mockup --no-base-dir-warnings run script michelson_test_scripts/opcodes/add.tz on storage Unit and input Unit --level 1 --trace-stack
storage
  Unit
emitted operations
  
big_map diff
  
trace
  - location: 7 (just consumed gas: 67.780)
    [ (Pair Unit Unit) ]
  - location: 7 (just consumed gas: 0.010)
    [ Unit ]
  - location: 8 (just consumed gas: 0.010)
    [ 2
      Unit ]
  - location: 11 (just consumed gas: 0.010)
    [ 2
      2
      Unit ]
  - location: 14 (just consumed gas: 0.035)
    [ 4
      Unit ]
  - location: 15 (just consumed gas: 0.010)
    [ 4
      4
      Unit ]
  - location: 20 (just consumed gas: 0.035)
    [ 0
      Unit ]
  - location: 21 (just consumed gas: 0.010)
    [ True
      Unit ]
  - location: 22 (just consumed gas: 0.010)
    [ Unit ]
  - location: 22 (just consumed gas: 0.025)
    [ Unit ]
  - location: 28 (just consumed gas: 0.010)
    [ 2
      Unit ]
  - location: 31 (just consumed gas: 0.010)
    [ 2
      2
      Unit ]
  - location: 34 (just consumed gas: 0.035)
    [ 4
      Unit ]
  - location: 35 (just consumed gas: 0.010)
    [ 4
      4
      Unit ]
  - location: 40 (just consumed gas: 0.035)
    [ 0
      Unit ]
  - location: 41 (just consumed gas: 0.010)
    [ True
      Unit ]
  - location: 42 (just consumed gas: 0.010)
    [ Unit ]
  - location: 42 (just consumed gas: 0.025)
    [ Unit ]
  - location: 48 (just consumed gas: 0.010)
    [ 2
      Unit ]
  - location: 51 (just consumed gas: 0.010)
    [ 2
      2
      Unit ]
  - location: 54 (just consumed gas: 0.035)
    [ 4
      Unit ]
  - location: 55 (just consumed gas: 0.010)
    [ 4
      4
      Unit ]
  - location: 60 (just consumed gas: 0.035)
    [ 0
      Unit ]
  - location: 61 (just consumed gas: 0.010)
    [ True
      Unit ]
  - location: 62 (just consumed gas: 0.010)
    [ Unit ]
  - location: 62 (just consumed gas: 0.025)
    [ Unit ]
  - location: 68 (just consumed gas: 0.010)
    [ 2
      Unit ]
  - location: 71 (just consumed gas: 0.010)
    [ 2
      2
      Unit ]
  - location: 74 (just consumed gas: 0.035)
    [ 4
      Unit ]
  - location: 75 (just consumed gas: 0.010)
    [ 4
      4
      Unit ]
  - location: 80 (just consumed gas: 0.035)
    [ 0
      Unit ]
  - location: 81 (just consumed gas: 0.010)
    [ True
      Unit ]
  - location: 82 (just consumed gas: 0.010)
    [ Unit ]
  - location: 82 (just consumed gas: 0.025)
    [ Unit ]
  - location: 88 (just consumed gas: 0.010)
    [ 2
      Unit ]
  - location: 91 (just consumed gas: 0.010)
    [ 2
      2
      Unit ]
  - location: 94 (just consumed gas: 0.035)
    [ 4
      Unit ]
  - location: 95 (just consumed gas: 0.010)
    [ 4
      4
      Unit ]
  - location: 100 (just consumed gas: 0.035)
    [ 0
      Unit ]
  - location: 101 (just consumed gas: 0.010)
    [ True
      Unit ]
  - location: 102 (just consumed gas: 0.010)
    [ Unit ]
  - location: 102 (just consumed gas: 0.025)
    [ Unit ]
  - location: 108 (just consumed gas: 0.010)
    [ 60
      Unit ]
  - location: 111 (just consumed gas: 0.010)
    [ "2019-09-09T12:08:37Z"
      60
      Unit ]
  - location: 114 (just consumed gas: 0.037)
    [ "2019-09-09T12:09:37Z"
      Unit ]
  - location: 115 (just consumed gas: 0.010)
    [ "2019-09-09T12:09:37Z"
      "2019-09-09T12:09:37Z"
      Unit ]
  - location: 120 (just consumed gas: 0.035)
    [ 0
      Unit ]
  - location: 121 (just consumed gas: 0.010)
    [ True
      Unit ]
  - location: 122 (just consumed gas: 0.010)
    [ Unit ]
  - location: 122 (just consumed gas: 0.025)
    [ Unit ]
  - location: 128 (just consumed gas: 0.010)
    [ "2019-09-09T12:08:37Z"
      Unit ]
  - location: 131 (just consumed gas: 0.010)
    [ 60
      "2019-09-09T12:08:37Z"
      Unit ]
  - location: 134 (just consumed gas: 0.037)
    [ "2019-09-09T12:09:37Z"
      Unit ]
  - location: 135 (just consumed gas: 0.010)
    [ "2019-09-09T12:09:37Z"
      "2019-09-09T12:09:37Z"
      Unit ]
  - location: 140 (just consumed gas: 0.035)
    [ 0
      Unit ]
  - location: 141 (just consumed gas: 0.010)
    [ True
      Unit ]
  - location: 142 (just consumed gas: 0.010)
    [ Unit ]
  - location: 142 (just consumed gas: 0.025)
    [ Unit ]
  - location: 148 (just consumed gas: 0.010)
    [ 1000
      Unit ]
  - location: 151 (just consumed gas: 0.010)
    [ 1000
      1000
      Unit ]
  - location: 154 (just consumed gas: 0.020)
    [ 2000
      Unit ]
  - location: 155 (just consumed gas: 0.010)
    [ 2000
      2000
      Unit ]
  - location: 160 (just consumed gas: 0.035)
    [ 0
      Unit ]
  - location: 161 (just consumed gas: 0.010)
    [ True
      Unit ]
  - location: 162 (just consumed gas: 0.010)
    [ Unit ]
  - location: 162 (just consumed gas: 0.025)
    [ Unit ]
  - location: 168 (just consumed gas: 0.010)
    [ {}
      Unit ]
  - location: 170 (just consumed gas: 0.010)
    [ (Pair {} Unit) ]

