
./octez-client --protocol PtParisBxoLz5gzMmn3d9WBQNoPSZakgnkMC2VNuQ3KXfUtUQeZ --mode mockup --no-base-dir-warnings run script michelson_test_scripts/opcodes/if_some.tz on storage '"?"' and input '(Some "hello")' --level 1 --trace-stack
storage
  "hello"
emitted operations
  
big_map diff
  
trace
  - location: 8 (just consumed gas: 6.316)
    [ (Pair (Some "hello") "?") ]
  - location: 8 (just consumed gas: 0.010)
    [ (Some "hello") ]
  - location: 10 (just consumed gas: 0.010)
    [ "hello" ]
  - location: 10 (just consumed gas: 0.025)
    [ "hello" ]
  - location: 16 (just consumed gas: 0.010)
    [ {}
      "hello" ]
  - location: 18 (just consumed gas: 0.010)
    [ (Pair {} "hello") ]

