
./octez-client --protocol PtParisBxoLz5gzMmn3d9WBQNoPSZakgnkMC2VNuQ3KXfUtUQeZ --mode mockup --no-base-dir-warnings run script michelson_test_scripts/opcodes/and_logical_1.tz on storage False and input '(Pair True True)' --level 1 --trace-stack
storage
  True
emitted operations
  
big_map diff
  
trace
  - location: 9 (just consumed gas: 5.330)
    [ (Pair (Pair True True) False) ]
  - location: 9 (just consumed gas: 0.010)
    [ (Pair True True) ]
  - location: 10 (just consumed gas: 0.010)
    [ True
      True ]
  - location: 11 (just consumed gas: 0.010)
    [ True ]
  - location: 12 (just consumed gas: 0.010)
    [ {}
      True ]
  - location: 14 (just consumed gas: 0.010)
    [ (Pair {} True) ]

