
./octez-client --protocol PtParisBxoLz5gzMmn3d9WBQNoPSZakgnkMC2VNuQ3KXfUtUQeZ --mode mockup --no-base-dir-warnings run script michelson_test_scripts/opcodes/big_map_mem_string.tz on storage '(Pair { Elt "foo" 1 } None)' and input '"bar"' --level 1 --trace-stack
storage
  (Pair 4 (Some False))
emitted operations
  
big_map diff
  New map(4) of type (big_map string nat)
  Set map(4)["foo"] to 1
trace
  - location: 12 (just consumed gas: 10.681)
    [ (Pair "bar" { Elt "foo" 1 } None) ]
  - location: 12 (just consumed gas: 0.010)
    [ "bar"
      (Pair { Elt "foo" 1 } None) ]
  - location: 13 (just consumed gas: 0.010)
    [ (Pair { Elt "foo" 1 } None) ]
  - location: 15 (just consumed gas: 0.010)
    [ { Elt "foo" 1 } ]
  - location: 16 (just consumed gas: 0.010)
    [ { Elt "foo" 1 }
      { Elt "foo" 1 } ]
  - location: 13 (just consumed gas: 0.035)
    [ "bar"
      { Elt "foo" 1 }
      { Elt "foo" 1 } ]
  - location: 17 (just consumed gas: 0.735)
    [ False
      { Elt "foo" 1 } ]
  - location: 18 (just consumed gas: 0.010)
    [ (Some False)
      { Elt "foo" 1 } ]
  - location: 19 (just consumed gas: 0.010)
    [ { Elt "foo" 1 }
      (Some False) ]
  - location: 20 (just consumed gas: 0.010)
    [ (Pair { Elt "foo" 1 } (Some False)) ]
  - location: 21 (just consumed gas: 0.010)
    [ {}
      (Pair { Elt "foo" 1 } (Some False)) ]
  - location: 23 (just consumed gas: 0.010)
    [ (Pair {} { Elt "foo" 1 } (Some False)) ]

