
./octez-client --protocol PtParisBxoLz5gzMmn3d9WBQNoPSZakgnkMC2VNuQ3KXfUtUQeZ --mode mockup --no-base-dir-warnings run script michelson_test_scripts/opcodes/reverse.tz on storage '{""}' and input '{ "c" ; "b" ; "a" }' --level 1 --trace-stack
storage
  { "a" ; "b" ; "c" }
emitted operations
  
big_map diff
  
trace
  - location: 9 (just consumed gas: 7.147)
    [ (Pair { "c" ; "b" ; "a" } { "" }) ]
  - location: 9 (just consumed gas: 0.010)
    [ { "c" ; "b" ; "a" } ]
  - location: 10 (just consumed gas: 0.010)
    [ {}
      { "c" ; "b" ; "a" } ]
  - location: 12 (just consumed gas: 0.010)
    [ { "c" ; "b" ; "a" }
      {} ]
  - location: 13 (just consumed gas: 0.030)
    [ "c"
      {} ]
  - location: 15 (just consumed gas: 0.010)
    [ { "c" } ]
  - location: 13 (just consumed gas: 0.025)
    [ "b"
      { "c" } ]
  - location: 15 (just consumed gas: 0.010)
    [ { "b" ; "c" } ]
  - location: 13 (just consumed gas: 0.025)
    [ "a"
      { "b" ; "c" } ]
  - location: 15 (just consumed gas: 0.010)
    [ { "a" ; "b" ; "c" } ]
  - location: 13 (just consumed gas: 0.035)
    [ { "a" ; "b" ; "c" } ]
  - location: 16 (just consumed gas: 0.010)
    [ {}
      { "a" ; "b" ; "c" } ]
  - location: 18 (just consumed gas: 0.010)
    [ (Pair {} { "a" ; "b" ; "c" }) ]

