
./octez-client --protocol PtParisBxoLz5gzMmn3d9WBQNoPSZakgnkMC2VNuQ3KXfUtUQeZ --mode mockup --no-base-dir-warnings run script michelson_test_scripts/opcodes/int.tz on storage None and input 0 --level 1 --trace-stack
storage
  (Some 0)
emitted operations
  
big_map diff
  
trace
  - location: 8 (just consumed gas: 4.907)
    [ (Pair 0 None) ]
  - location: 8 (just consumed gas: 0.010)
    [ 0 ]
  - location: 9 (just consumed gas: 0.010)
    [ 0 ]
  - location: 10 (just consumed gas: 0.010)
    [ (Some 0) ]
  - location: 11 (just consumed gas: 0.010)
    [ {}
      (Some 0) ]
  - location: 13 (just consumed gas: 0.010)
    [ (Pair {} (Some 0)) ]

