
./octez-client --protocol PtParisBxoLz5gzMmn3d9WBQNoPSZakgnkMC2VNuQ3KXfUtUQeZ --mode mockup --no-base-dir-warnings run script michelson_test_scripts/opcodes/level.tz on storage 111 and input Unit --level 1 --trace-stack
storage
  1
emitted operations
  
big_map diff
  
trace
  - location: 7 (just consumed gas: 4.158)
    [ (Pair Unit 111) ]
  - location: 7 (just consumed gas: 0.010)
    [  ]
  - location: 8 (just consumed gas: 0.010)
    [ 1 ]
  - location: 9 (just consumed gas: 0.010)
    [ {}
      1 ]
  - location: 11 (just consumed gas: 0.010)
    [ (Pair {} 1) ]

