[
  {
    "file": "src/proto_alpha/lib_protocol/test/unit/test_sc_rollup_storage.ml",
    "title": "alpha: sc rollup storage (Record messages in storage outbox)",
    "tags": [
      "alcotezt",
      "quick",
      "alpha"
    ],
    "successful_runs": {
      "total_time": "13200",
      "count": "1"
    }
  },
  {
    "file": "src/proto_alpha/lib_protocol/test/unit/test_round_repr.ml",
    "title": "alpha: round (level offset too high error is triggered)",
    "tags": [
      "alcotezt",
      "quick",
      "alpha"
    ],
    "successful_runs": {
      "total_time": "1442",
      "count": "1"
    }
  },
  {
    "file": "src/proto_alpha/lib_protocol/test/pbt/test_carbonated_map.ml",
    "title": "alpha: Carbonated map (Update with merge add)",
    "tags": [
      "alcotezt",
      "quick",
      "alpha"
    ],
    "successful_runs": {
      "total_time": "18185",
      "count": "1"
    }
  },
  {
    "file": "src/proto_alpha/lib_protocol/test/integration/operations/test_voting.ml",
    "title": "alpha: voting (voting period pretty print)",
    "tags": [
      "alcotezt",
      "quick",
      "alpha"
    ],
    "successful_runs": {
      "total_time": "828",
      "count": "1"
    }
  },
  {
    "file": "src/proto_alpha/lib_protocol/test/integration/operations/test_transfer.ml",
    "title": "alpha: transfer (single transfer zero tez)",
    "tags": [
      "alcotezt",
      "quick",
      "alpha"
    ],
    "successful_runs": {
      "total_time": "18306",
      "count": "1"
    }
  },
  {
    "file": "src/proto_alpha/lib_protocol/test/integration/operations/test_sc_rollup.ml",
    "title": "alpha: sc rollup (cannot start a game on a cemented commitment)",
    "tags": [
      "alcotezt",
      "quick",
      "alpha"
    ],
    "successful_runs": {
      "total_time": "7095168",
      "count": "1"
    }
  },
  {
    "file": "src/proto_alpha/lib_protocol/test/integration/operations/test_sc_rollup_transfer.ml",
    "title": "alpha: sc rollup transfer (Transfer of zero-amount ticket)",
    "tags": [
      "alcotezt",
      "quick",
      "alpha"
    ],
    "successful_runs": {
      "total_time": "22418",
      "count": "1"
    }
  },
  {
    "file": "src/proto_alpha/lib_protocol/test/integration/operations/test_paid_storage_increase.ml",
    "title": "alpha: paid storage increase (no contract to bump its paid storage)",
    "tags": [
      "alcotezt",
      "quick",
      "alpha"
    ],
    "successful_runs": {
      "total_time": "15479",
      "count": "1"
    }
  },
  {
    "file": "src/proto_alpha/lib_protocol/test/integration/michelson/test_ticket_scanner.ml",
    "title": "alpha: ticket scanner (tickets in big map with include lazy set to false)",
    "tags": [
      "alcotezt",
      "quick",
      "alpha"
    ],
    "successful_runs": {
      "total_time": "10540",
      "count": "1"
    }
  },
  {
    "file": "src/proto_alpha/lib_protocol/test/integration/michelson/test_ticket_balance_key.ml",
    "title": "alpha: ticket balance key (annotations for pair)",
    "tags": [
      "alcotezt",
      "quick",
      "alpha"
    ],
    "successful_runs": {
      "total_time": "9737",
      "count": "1"
    }
  },
  {
    "file": "src/proto_alpha/lib_protocol/test/integration/gas/test_gas_levels.ml",
    "title": "alpha: gas levels (Detect gas limit consumption when it is above the hard gas operation limit)",
    "tags": [
      "alcotezt",
      "quick",
      "alpha"
    ],
    "successful_runs": {
      "total_time": "6659",
      "count": "1"
    }
  },
  {
    "file": "src/proto_alpha/lib_protocol/test/integration/consensus/test_double_preattestation.ml",
    "title": "alpha: double preattestation (AppMode: ko: malformed_double_preattestation_denunciation_different_validators)",
    "tags": [
      "alcotezt",
      "quick",
      "alpha"
    ],
    "successful_runs": {
      "total_time": "28939",
      "count": "1"
    }
  },
  {
    "file": "src/proto_alpha/lib_protocol/test/integration/consensus/test_delegation.ml",
    "title": "alpha: delegation (unregistered and revealed self-delegation (small fee))",
    "tags": [
      "alcotezt",
      "quick",
      "alpha"
    ],
    "successful_runs": {
      "total_time": "15506",
      "count": "1"
    }
  },
  {
    "file": "src/proto_alpha/lib_protocol/test/integration/consensus/test_consensus_key.ml",
    "title": "alpha: consensus key (drain delegate high balance, excluding ck, ck does not delegate)",
    "tags": [
      "alcotezt",
      "quick",
      "alpha"
    ],
    "successful_runs": {
      "total_time": "41992",
      "count": "1"
    }
  },
  {
    "file": "src/proto_alpha/lib_protocol/test/integration/consensus/test_attestation.ml",
    "title": "alpha: attestation (Fitness gap)",
    "tags": [
      "alcotezt",
      "quick",
      "alpha"
    ],
    "successful_runs": {
      "total_time": "12515",
      "count": "1"
    }
  },
  {
    "file": "src/proto_alpha/lib_protocol/test/integration/test_storage.ml",
    "title": "alpha: storage description (register single data in existing path)",
    "tags": [
      "alcotezt",
      "quick",
      "alpha"
    ],
    "successful_runs": {
      "total_time": "187",
      "count": "1"
    }
  },
  {
    "file": "src/proto_alpha/lib_protocol/test/integration/test_liquidity_baking.ml",
    "title": "alpha: liquidity baking (Init Context)",
    "tags": [
      "alcotezt",
      "quick",
      "alpha"
    ],
    "successful_runs": {
      "total_time": "46786",
      "count": "1"
    }
  },
  {
    "file": "src/proto_alpha/lib_protocol/test/integration/test_adaptive_issuance_roundtrip.ml",
    "title": "alpha: adaptive issuance roundtrip (Test finalize: AI activated, self stake, finalize with unstake)",
    "tags": [
      "alcotezt",
      "quick",
      "alpha"
    ],
    "successful_runs": {
      "total_time": "326868",
      "count": "1"
    }
  },
  {
    "file": "src/proto_alpha/lib_protocol/test/integration/test_adaptive_issuance_roundtrip.ml",
    "title": "alpha: adaptive issuance roundtrip (Test simple slashing: ns_enable = true, Yes AI, double baking, denounce same cycle)",
    "tags": [
      "alcotezt",
      "quick",
      "alpha"
    ],
    "successful_runs": {
      "total_time": "212389",
      "count": "1"
    }
  },
  {
    "file": "src/proto_alpha/lib_protocol/test/integration/test_adaptive_issuance_roundtrip.ml",
    "title": "alpha: adaptive issuance roundtrip (Test simple slashing: ns_enable = false, Yes AI, double attesting, denounce same cycle, another slash, double preattesting)",
    "tags": [
      "alcotezt",
      "quick",
      "alpha"
    ],
    "successful_runs": {
      "total_time": "225185",
      "count": "1"
    }
  },
  {
    "file": "src/proto_alpha/lib_protocol/test/integration/test_adaptive_issuance_roundtrip.ml",
    "title": "alpha: adaptive issuance roundtrip (Test slashed is forbidden: ns_enable = false, Two double attestations, in consecutive cycles, denounce out of order)",
    "tags": [
      "alcotezt",
      "quick",
      "alpha"
    ],
    "successful_runs": {
      "total_time": "103748",
      "count": "1"
    }
  },
  {
    "file": "src/proto_alpha/lib_dal/test/test_dal_slot_frame_encoding.ml",
    "title": "alpha: [Unit] Slot_framing_protocol.ml (Encoded slot can be decoded (V0, 1 rollup))",
    "tags": [
      "alcotezt",
      "quick",
      "alpha"
    ],
    "successful_runs": {
      "total_time": "200",
      "count": "1"
    }
  },
  {
    "file": "src/proto_alpha/lib_client/test/test_michelson_v1_macros.ml",
    "title": "alpha: micheline v1 macros (assert_if unexpansion)",
    "tags": [
      "alcotezt",
      "quick",
      "alpha"
    ],
    "successful_runs": {
      "total_time": "452",
      "count": "1"
    }
  },
  {
    "file": "src/proto_018_Proxford/lib_protocol/test/unit/test_sc_rollup_storage.ml",
    "title": "018-Proxford: sc rollup storage (finds no conflict point with two stakers, one of which is at LCC (PVM in preboot))",
    "tags": [
      "alcotezt",
      "quick",
      "oxford"
    ],
    "successful_runs": {
      "total_time": "14070",
      "count": "1"
    }
  },
  {
    "file": "src/proto_018_Proxford/lib_protocol/test/unit/test_sc_rollup_arith.ml",
    "title": "018-Proxford: sc rollup arith (Metadata)",
    "tags": [
      "alcotezt",
      "quick",
      "oxford"
    ],
    "successful_runs": {
      "total_time": "204",
      "count": "1"
    }
  },
  {
    "file": "src/proto_018_Proxford/lib_protocol/test/unit/test_saturation.ml",
    "title": "018-Proxford: saturation arithmetic (Multiplication (fast version))",
    "tags": [
      "alcotezt",
      "quick",
      "oxford"
    ],
    "successful_runs": {
      "total_time": "180",
      "count": "1"
    }
  },
  {
    "file": "src/proto_018_Proxford/lib_protocol/test/unit/test_global_constants_storage.ml",
    "title": "018-Proxford: Global constants storage (expand: deep constants)",
    "tags": [
      "alcotezt",
      "quick",
      "oxford"
    ],
    "successful_runs": {
      "total_time": "5571816",
      "count": "1"
    }
  },
  {
    "file": "src/proto_018_Proxford/lib_protocol/test/unit/test_dal_slot_proof.ml",
    "title": "018-Proxford: dal slot proof ([test] Confirmed slot on top of genesis: confirmed page with bad data)",
    "tags": [
      "alcotezt",
      "quick",
      "oxford"
    ],
    "successful_runs": {
      "total_time": "7989012",
      "count": "1"
    }
  },
  {
    "file": "src/proto_018_Proxford/lib_protocol/test/regression/test_logging.ml",
    "title": "018_Proxford: comb-get",
    "tags": [
      "regression",
      "protocol",
      "regression",
      "logging"
    ],
    "successful_runs": {
      "total_time": "16095",
      "count": "1"
    }
  },
  {
    "file": "src/proto_018_Proxford/lib_protocol/test/integration/operations/test_voting.ml",
    "title": "018-Proxford: voting (Ballot wrong voting period kind)",
    "tags": [
      "alcotezt",
      "quick",
      "oxford"
    ],
    "successful_runs": {
      "total_time": "23610",
      "count": "1"
    }
  },
  {
    "file": "src/proto_018_Proxford/lib_protocol/test/integration/operations/test_activation.ml",
    "title": "018-Proxford: activation (single activation)",
    "tags": [
      "alcotezt",
      "quick",
      "oxford"
    ],
    "successful_runs": {
      "total_time": "66735",
      "count": "1"
    }
  },
  {
    "file": "src/proto_018_Proxford/lib_protocol/test/integration/michelson/test_ticket_manager.ml",
    "title": "018-Proxford: ticket manager (Add and remove from strict storage)",
    "tags": [
      "alcotezt",
      "quick",
      "oxford"
    ],
    "successful_runs": {
      "total_time": "63801",
      "count": "1"
    }
  },
  {
    "file": "src/proto_018_Proxford/lib_protocol/test/integration/michelson/test_ticket_accounting.ml",
    "title": "018-Proxford: ticket accounting (Diffs for tickets in args and storage)",
    "tags": [
      "alcotezt",
      "quick",
      "oxford"
    ],
    "successful_runs": {
      "total_time": "11137",
      "count": "1"
    }
  },
  {
    "file": "src/proto_018_Proxford/lib_protocol/test/integration/michelson/test_contract_event.ml",
    "title": "018-Proxford: event logging (contract emits event with correct data in proper order)",
    "tags": [
      "alcotezt",
      "quick",
      "oxford"
    ],
    "successful_runs": {
      "total_time": "10986",
      "count": "1"
    }
  },
  {
    "file": "src/proto_018_Proxford/lib_protocol/test/integration/gas/test_gas_levels.ml",
    "title": "018-Proxford: gas levels (multiple single operations with contract infinite loop)",
    "tags": [
      "alcotezt",
      "quick",
      "oxford"
    ],
    "successful_runs": {
      "total_time": "16291",
      "count": "1"
    }
  },
  {
    "file": "src/proto_018_Proxford/lib_protocol/test/integration/consensus/test_seed.ml",
    "title": "018-Proxford: seed (for_cycle cycle bounds)",
    "tags": [
      "alcotezt",
      "quick",
      "oxford"
    ],
    "successful_runs": {
      "total_time": "31727",
      "count": "1"
    }
  },
  {
    "file": "src/proto_018_Proxford/lib_protocol/test/integration/consensus/test_preattestation.ml",
    "title": "018-Proxford: preattestation (Duplicate preattestation)",
    "tags": [
      "alcotezt",
      "quick",
      "oxford"
    ],
    "successful_runs": {
      "total_time": "13605",
      "count": "1"
    }
  },
  {
    "file": "src/proto_018_Proxford/lib_protocol/test/integration/consensus/test_delegation.ml",
    "title": "018-Proxford: delegation (unregistered delegate key - credit 1μꜩ (origination, edge case fee))",
    "tags": [
      "alcotezt",
      "quick",
      "oxford"
    ],
    "successful_runs": {
      "total_time": "9055",
      "count": "1"
    }
  },
  {
    "file": "src/proto_018_Proxford/lib_protocol/test/integration/consensus/test_attestation.ml",
    "title": "018-Proxford: attestation (Many rounds in the future)",
    "tags": [
      "alcotezt",
      "quick",
      "oxford"
    ],
    "successful_runs": {
      "total_time": "14037",
      "count": "1"
    }
  },
  {
    "file": "src/proto_018_Proxford/lib_protocol/test/integration/test_token.ml",
    "title": "018-Proxford: token movements (transfer - test from no giver to a receiver)",
    "tags": [
      "alcotezt",
      "quick",
      "oxford"
    ],
    "successful_runs": {
      "total_time": "5957",
      "count": "1"
    }
  },
  {
    "file": "src/proto_018_Proxford/lib_protocol/test/integration/test_liquidity_baking.ml",
    "title": "018-Proxford: liquidity baking (liquidity baking toggle vote with 60% of bakers voting Per_block_vote_off baking one block longer)",
    "tags": [
      "alcotezt",
      "quick",
      "oxford"
    ],
    "successful_runs": {
      "total_time": "2352263",
      "count": "1"
    }
  },
  {
    "file": "src/proto_018_Proxford/lib_protocol/test/integration/test_adaptive_issuance_roundtrip.ml",
    "title": "018-Proxford: adaptive issuance roundtrip (Test simple roundtrip: AI activated, self stake, wait after stake, full unstake)",
    "tags": [
      "alcotezt",
      "quick",
      "oxford"
    ],
    "successful_runs": {
      "total_time": "382404",
      "count": "1"
    }
  },
  {
    "file": "src/proto_018_Proxford/lib_protocol/test/integration/test_adaptive_issuance_roundtrip.ml",
    "title": "018-Proxford: adaptive issuance roundtrip (Test slash timing: stake, with a first slash, 6 cycles lag)",
    "tags": [
      "alcotezt",
      "quick",
      "oxford"
    ],
    "successful_runs": {
      "total_time": "124084",
      "count": "1"
    }
  },
  {
    "file": "src/proto_018_Proxford/lib_client/test/test_michelson_v1_macros.ml",
    "title": "018-Proxford: micheline v1 macros (if compare expansion: IFCMP)",
    "tags": [
      "alcotezt",
      "quick",
      "oxford"
    ],
    "successful_runs": {
      "total_time": "264",
      "count": "1"
    }
  },
  {
    "file": "src/proto_017_PtNairob/lib_protocol/test/unit/test_sc_rollup_storage.ml",
    "title": "017-PtNairob: sc rollup storage (finds conflict point beneath LCC)",
    "tags": [
      "alcotezt",
      "quick",
      "nairobi"
    ],
    "successful_runs": {
      "total_time": "9379",
      "count": "1"
    }
  },
  {
    "file": "src/proto_017_PtNairob/lib_protocol/test/unit/test_destination_repr.ml",
    "title": "017-PtNairob: Destination_repr.ml (Json decoding compat implicit contract (null address))",
    "tags": [
      "alcotezt",
      "quick",
      "nairobi"
    ],
    "successful_runs": {
      "total_time": "204",
      "count": "1"
    }
  },
  {
    "file": "src/proto_017_PtNairob/lib_protocol/test/unit/test_dal_slot_proof.ml",
    "title": "017-PtNairob: dal slot proof ([test] Confirmed slot on top of genesis: confirmed page with too long data)",
    "tags": [
      "alcotezt",
      "quick",
      "nairobi"
    ],
    "successful_runs": {
      "total_time": "9608275",
      "count": "1"
    }
  },
  {
    "file": "src/proto_017_PtNairob/lib_protocol/test/regression/test_logging.ml",
    "title": "017_PtNairob: dign",
    "tags": [
      "regression",
      "protocol",
      "regression",
      "logging"
    ],
    "successful_runs": {
      "total_time": "16460",
      "count": "1"
    }
  },
  {
    "file": "src/proto_017_PtNairob/lib_protocol/test/integration/operations/test_voting.ml",
    "title": "017-PtNairob: voting (Empty proposals)",
    "tags": [
      "alcotezt",
      "quick",
      "nairobi"
    ],
    "successful_runs": {
      "total_time": "11074",
      "count": "1"
    }
  },
  {
    "file": "src/proto_017_PtNairob/lib_protocol/test/integration/operations/test_transfer.ml",
    "title": "017-PtNairob: transfer (bad parameter)",
    "tags": [
      "alcotezt",
      "quick",
      "nairobi"
    ],
    "successful_runs": {
      "total_time": "8223",
      "count": "1"
    }
  },
  {
    "file": "src/proto_017_PtNairob/lib_protocol/test/integration/operations/test_sc_rollup.ml",
    "title": "017-PtNairob: sc rollup (the curfew functionality)",
    "tags": [
      "alcotezt",
      "quick",
      "nairobi"
    ],
    "successful_runs": {
      "total_time": "144731",
      "count": "1"
    }
  },
  {
    "file": "src/proto_017_PtNairob/lib_protocol/test/integration/operations/test_activation.ml",
    "title": "017-PtNairob: activation (invalid activation with no commitments)",
    "tags": [
      "alcotezt",
      "quick",
      "nairobi"
    ],
    "successful_runs": {
      "total_time": "67968",
      "count": "1"
    }
  },
  {
    "file": "src/proto_017_PtNairob/lib_protocol/test/integration/michelson/test_ticket_operations_diff.ml",
    "title": "017-PtNairob: ticket operations diff (operations that do not involve tickets)",
    "tags": [
      "alcotezt",
      "quick",
      "nairobi"
    ],
    "successful_runs": {
      "total_time": "10033",
      "count": "1"
    }
  },
  {
    "file": "src/proto_017_PtNairob/lib_protocol/test/integration/michelson/test_ticket_accounting.ml",
    "title": "017-PtNairob: ticket accounting (Update ticket self diff)",
    "tags": [
      "alcotezt",
      "quick",
      "nairobi"
    ],
    "successful_runs": {
      "total_time": "11646",
      "count": "1"
    }
  },
  {
    "file": "src/proto_017_PtNairob/lib_protocol/test/integration/michelson/test_sapling.ml",
    "title": "017-PtNairob: sapling (double_spend_same_input)",
    "tags": [
      "alcotezt",
      "quick",
      "nairobi"
    ],
    "successful_runs": {
      "total_time": "9137355",
      "count": "1"
    }
  },
  {
    "file": "src/proto_017_PtNairob/lib_protocol/test/integration/gas/test_gas_levels.ml",
    "title": "017-PtNairob: gas levels (Detect gas exhaustion when operation gas as hits zero)",
    "tags": [
      "alcotezt",
      "quick",
      "nairobi"
    ],
    "successful_runs": {
      "total_time": "6440",
      "count": "1"
    }
  },
  {
    "file": "src/proto_017_PtNairob/lib_protocol/test/integration/consensus/test_seed.ml",
    "title": "017-PtNairob: seed (early_incorrect_unverified_correct_already_vdf)",
    "tags": [
      "alcotezt",
      "quick",
      "nairobi"
    ],
    "successful_runs": {
      "total_time": "1280864",
      "count": "1"
    }
  },
  {
    "file": "src/proto_017_PtNairob/lib_protocol/test/integration/consensus/test_preendorsement.ml",
    "title": "017-PtNairob: preendorsement (AppMode: ko: duplicate_preendorsement_in_pqc)",
    "tags": [
      "alcotezt",
      "quick",
      "nairobi"
    ],
    "successful_runs": {
      "total_time": "15849",
      "count": "1"
    }
  },
  {
    "file": "src/proto_017_PtNairob/lib_protocol/test/integration/consensus/test_endorsement.ml",
    "title": "017-PtNairob: endorsement (Many rounds in the future)",
    "tags": [
      "alcotezt",
      "quick",
      "nairobi"
    ],
    "successful_runs": {
      "total_time": "16458",
      "count": "1"
    }
  },
  {
    "file": "src/proto_017_PtNairob/lib_protocol/test/integration/consensus/test_delegation.ml",
    "title": "017-PtNairob: delegation (unregistered delegate key - credit 1μꜩ (switch with delegation, small fee))",
    "tags": [
      "alcotezt",
      "quick",
      "nairobi"
    ],
    "successful_runs": {
      "total_time": "16103",
      "count": "1"
    }
  },
  {
    "file": "src/proto_017_PtNairob/lib_protocol/test/integration/test_liquidity_baking.ml",
    "title": "017-PtNairob: liquidity baking (liquidity baking CPMM balance in origination result is 100 mutez)",
    "tags": [
      "alcotezt",
      "quick",
      "nairobi"
    ],
    "successful_runs": {
      "total_time": "9217",
      "count": "1"
    }
  },
  {
    "file": "src/proto_017_PtNairob/lib_client/test/test_michelson_v1_macros.ml",
    "title": "017-PtNairob: micheline v1 macros (assert_right annot unexpansion)",
    "tags": [
      "alcotezt",
      "quick",
      "nairobi"
    ],
    "successful_runs": {
      "total_time": "645",
      "count": "1"
    }
  },
  {
    "file": "src/lib_store/unix/test/test_consistency.ml",
    "title": "tezos-store: consistency (protocol level consistency (Full mode + 1 extra cycles): remove file)",
    "tags": [
      "alcotezt",
      "quick"
    ],
    "successful_runs": {
      "total_time": "208111",
      "count": "1"
    }
  },
  {
    "file": "src/lib_store/unix/test/test.ml",
    "title": "tezos-store: snapshots (export => import with 77 initial blocks from Rolling mode to rolling (exported block at level 24) using directory format)",
    "tags": [
      "alcotezt",
      "quick"
    ],
    "successful_runs": {
      "total_time": "1479255",
      "count": "1"
    }
  },
  {
    "file": "src/lib_store/unix/test/test.ml",
    "title": "tezos-store: reconstruct (Reconstructing from snapshots on a Full mode + 1 extra cycles node with 0 blocks.)",
    "tags": [
      "alcotezt",
      "quick"
    ],
    "successful_runs": {
      "total_time": "37482",
      "count": "1"
    }
  },
  {
    "file": "src/lib_stdlib/test/test_fallbackArray.ml",
    "title": "stdlib: FallbackArray (map)",
    "tags": [
      "alcotezt",
      "quick"
    ],
    "successful_runs": {
      "total_time": "221",
      "count": "1"
    }
  },
  {
    "file": "src/lib_shell_services/test/test_block_services.ml",
    "title": "tezos-lib-shell-services: block-services (json-encoding of large directory)",
    "tags": [
      "alcotezt",
      "quick"
    ],
    "successful_runs": {
      "total_time": "1258158",
      "count": "1"
    }
  },
  {
    "file": "src/lib_shell/test/test_protocol_validator.ml",
    "title": "tezos-shell: test validator (previously_validated_protocol)",
    "tags": [
      "alcotezt",
      "quick"
    ],
    "successful_runs": {
      "total_time": "7071",
      "count": "1"
    }
  },
  {
    "file": "src/lib_scoru_wasm/test/test_wasm_vm.ml",
    "title": "test lib scoru wasm: WASM VM (Test eval_has_finished: padding (2.0.0-r1))",
    "tags": [
      "alcotezt",
      "quick"
    ],
    "successful_runs": {
      "total_time": "5421",
      "count": "1"
    }
  },
  {
    "file": "src/lib_scoru_wasm/test/test_wasm_pvm.ml",
    "title": "test lib scoru wasm: WASM PVM (Test snapshotable state (2.0.0-r1))",
    "tags": [
      "alcotezt",
      "quick"
    ],
    "successful_runs": {
      "total_time": "1143",
      "count": "1"
    }
  },
  {
    "file": "src/lib_scoru_wasm/test/test_wasm_pvm.ml",
    "title": "test lib scoru wasm: WASM PVM (Test kernel upgrade fallsback on decoding error (2.0.0-r1))",
    "tags": [
      "alcotezt",
      "quick"
    ],
    "successful_runs": {
      "total_time": "22655",
      "count": "1"
    }
  },
  {
    "file": "src/lib_scoru_wasm/test/test_reveal.ml",
    "title": "test lib scoru wasm: Reveal (Test reveal_preimage with preimage length above max_bytes (2.0.0))",
    "tags": [
      "alcotezt",
      "quick"
    ],
    "successful_runs": {
      "total_time": "7485",
      "count": "1"
    }
  },
  {
    "file": "src/lib_scoru_wasm/test/test_init.ml",
    "title": "test lib scoru wasm: Module Initialisation (Check `kernel_run` not being a function error (2.0.0-r3))",
    "tags": [
      "alcotezt",
      "quick"
    ],
    "successful_runs": {
      "total_time": "2065",
      "count": "1"
    }
  },
  {
    "file": "src/lib_scoru_wasm/test/test_hash_consistency.ml",
    "title": "test lib scoru wasm: Hash correspondence (Executions correspondence (ticks 20,000 to 25,000) (2.0.0-r2))",
    "tags": [
      "alcotezt",
      "quick"
    ],
    "successful_runs": {
      "total_time": "18348587",
      "count": "1"
    }
  },
  {
    "file": "src/lib_scoru_wasm/test/test_durable_storage.ml",
    "title": "test lib scoru wasm: Durable storage (store_has existing key (2.0.0-r2))",
    "tags": [
      "alcotezt",
      "quick"
    ],
    "successful_runs": {
      "total_time": "20470",
      "count": "1"
    }
  },
  {
    "file": "src/lib_scoru_wasm/test/test_debug.ml",
    "title": "test lib scoru wasm: Debug (debug on more than one memory (2.0.0-r2))",
    "tags": [
      "alcotezt",
      "quick"
    ],
    "successful_runs": {
      "total_time": "837",
      "count": "1"
    }
  },
  {
    "file": "src/lib_scoru_wasm/regressions/tezos_scoru_wasm_regressions.ml",
    "title": "kernel link_store_get_hash run (proof, v0)",
    "tags": [
      "regression",
      "wasm_2_0_0",
      "link_store_get_hash",
      "proof",
      "v0"
    ],
    "successful_runs": {
      "total_time": "507524",
      "count": "1"
    }
  },
  {
    "file": "src/lib_scoru_wasm/fast/test/test_fast.ml",
    "title": "test lib scoru-wasm-fast: Fast Execution (read_input (2.0.0-r1))",
    "tags": [
      "alcotezt",
      "quick"
    ],
    "successful_runs": {
      "total_time": "1038743",
      "count": "1"
    }
  },
  {
    "file": "src/lib_sapling/test/test_rustzcash.ml",
    "title": "sapling: rustzcash (proving context)",
    "tags": [
      "alcotezt",
      "quick"
    ],
    "successful_runs": {
      "total_time": "12164304",
      "count": "1"
    }
  },
  {
    "file": "src/lib_protocol_environment/test/test_mem_context.ml",
    "title": "tezos-shell-context: mem_context (fork)",
    "tags": [
      "alcotezt",
      "quick"
    ],
    "successful_runs": {
      "total_time": "285",
      "count": "1"
    }
  },
  {
    "file": "src/lib_polynomial/test/test_with_finite_field.ml",
    "title": "Polynomials with F379 and some random prime fields: Test evaluation, field order = 883482511 (evaluation at any point of the zero polynomial)",
    "tags": [
      "alcotezt",
      "quick"
    ],
    "successful_runs": {
      "total_time": "317",
      "count": "1"
    }
  },
  {
    "file": "src/lib_polynomial/test/test_with_finite_field.ml",
    "title": "Polynomials with F379 and some random prime fields: Tests on degrees, field order = 4002409555221667393417789825735904156556882819939007885332058136124031650490837864442687629129015664037894272559787 (degree of constants is one)",
    "tags": [
      "alcotezt",
      "quick"
    ],
    "successful_runs": {
      "total_time": "232",
      "count": "1"
    }
  },
  {
    "file": "src/lib_polynomial/test/test_with_finite_field.ml",
    "title": "Polynomials with F379 and some random prime fields: Polynomial multiplication for prime field 4002409555221667393417789825735904156556882819939007885332058136124031650490837864442687629129015664037894272559787 (test properties distributivity and communtativity a p * b q = (a * b) (p * q) = (b p) * (a q) = p * (a * b) q)",
    "tags": [
      "alcotezt",
      "quick"
    ],
    "successful_runs": {
      "total_time": "7820",
      "count": "1"
    }
  },
  {
    "file": "src/lib_polynomial/test/test_with_finite_field.ml",
    "title": "Polynomials with F379 and some random prime fields: Euclidian division for prime field 379 (test vectors for random divided by constant)",
    "tags": [
      "alcotezt",
      "quick"
    ],
    "successful_runs": {
      "total_time": "392395",
      "count": "1"
    }
  },
  {
    "file": "src/lib_mec/test/test_vesta_projective.ml",
    "title": "Vesta projective coordinates: Group properties (mul_by_order_of_base_field_equals_element)",
    "tags": [
      "alcotezt",
      "quick"
    ],
    "successful_runs": {
      "total_time": "299287",
      "count": "1"
    }
  },
  {
    "file": "src/lib_mec/test/test_vesta_affine.ml",
    "title": "Vesta affine coordinates: value generation (of_bytes_exn and to_bytes are inverse functions)",
    "tags": [
      "alcotezt",
      "quick"
    ],
    "successful_runs": {
      "total_time": "12125",
      "count": "1"
    }
  },
  {
    "file": "src/lib_mec/test/test_tweedledum_projective.ml",
    "title": "Tweedledum projective coordinates: value generation (scalar multiplication generates a valid point)",
    "tags": [
      "alcotezt",
      "quick"
    ],
    "successful_runs": {
      "total_time": "154825",
      "count": "1"
    }
  },
  {
    "file": "src/lib_mec/test/test_tweedledum_jacobian.ml",
    "title": "Tweedledum jacobian coordinates: Group properties (zero_scalar_nullifier_zero)",
    "tags": [
      "alcotezt",
      "quick"
    ],
    "successful_runs": {
      "total_time": "469",
      "count": "1"
    }
  },
  {
    "file": "src/lib_mec/test/test_tweedledum_affine.ml",
    "title": "Tweedledum affine coordinates: Group properties (double)",
    "tags": [
      "alcotezt",
      "quick"
    ],
    "successful_runs": {
      "total_time": "14400",
      "count": "1"
    }
  },
  {
    "file": "src/lib_mec/test/test_tweedledee_projective.ml",
    "title": "Tweedledee projective coordinates: Group properties (additive_associativity)",
    "tags": [
      "alcotezt",
      "quick"
    ],
    "successful_runs": {
      "total_time": "41078",
      "count": "1"
    }
  },
  {
    "file": "src/lib_mec/test/test_tweedledee_affine.ml",
    "title": "Tweedledee affine coordinates: equality (random_same_objects)",
    "tags": [
      "alcotezt",
      "quick"
    ],
    "successful_runs": {
      "total_time": "13283",
      "count": "1"
    }
  },
  {
    "file": "src/lib_mec/test/test_secp256r1_projective.ml",
    "title": "secp256r1 projective coordinates: Group properties (additive_associativity)",
    "tags": [
      "alcotezt",
      "quick"
    ],
    "successful_runs": {
      "total_time": "12704",
      "count": "1"
    }
  },
  {
    "file": "src/lib_mec/test/test_secp256r1_affine.ml",
    "title": "secp256r1 affine coordinates: equality (random_same_objects)",
    "tags": [
      "alcotezt",
      "quick"
    ],
    "successful_runs": {
      "total_time": "3915",
      "count": "1"
    }
  },
  {
    "file": "src/lib_mec/test/test_secp256k1_projective.ml",
    "title": "secp256k1 projective coordinates: Group properties (multiplication_properties_on_base_field_element)",
    "tags": [
      "alcotezt",
      "quick"
    ],
    "successful_runs": {
      "total_time": "824481",
      "count": "1"
    }
  },
  {
    "file": "src/lib_mec/test/test_secp256k1_affine.ml",
    "title": "secp256k1 affine coordinates: value generation (random)",
    "tags": [
      "alcotezt",
      "quick"
    ],
    "successful_runs": {
      "total_time": "4040",
      "count": "1"
    }
  },
  {
    "file": "src/lib_mec/test/test_pallas_jacobian.ml",
    "title": "Pallas jacobian coordinates: value generation (negate_with_one)",
    "tags": [
      "alcotezt",
      "quick"
    ],
    "successful_runs": {
      "total_time": "237",
      "count": "1"
    }
  },
  {
    "file": "src/lib_mec/test/test_pallas_affine.ml",
    "title": "Pallas affine coordinates: Group properties (opposite_of_scalar_is_opposite_of_ec)",
    "tags": [
      "alcotezt",
      "quick"
    ],
    "successful_runs": {
      "total_time": "564558",
      "count": "1"
    }
  },
  {
    "file": "src/lib_mec/test/test_jubjub_weierstrass.ml",
    "title": "Jubjub - Weierstrass - Affine coordinates: value generation (check bytes on random with to_bytes)",
    "tags": [
      "alcotezt",
      "quick"
    ],
    "successful_runs": {
      "total_time": "18981",
      "count": "1"
    }
  },
  {
    "file": "src/lib_mec/test/test_jubjub.ml",
    "title": "Jubjub: value generation (negate_with_one)",
    "tags": [
      "alcotezt",
      "quick"
    ],
    "successful_runs": {
      "total_time": "194",
      "count": "1"
    }
  },
  {
    "file": "src/lib_mec/test/test_iso_pallas_affine.ml",
    "title": "Iso Pallas affine form: equality (zero)",
    "tags": [
      "alcotezt",
      "quick"
    ],
    "successful_runs": {
      "total_time": "344",
      "count": "1"
    }
  },
  {
    "file": "src/lib_mec/test/test_curve448.ml",
    "title": "Curve448: value generation (check bytes on random with to_bytes)",
    "tags": [
      "alcotezt",
      "quick"
    ],
    "successful_runs": {
      "total_time": "16320",
      "count": "1"
    }
  },
  {
    "file": "src/lib_mec/test/test_curve25519_montgomery.ml",
    "title": "Curve25519: Group properties (opposite_of_opposite)",
    "tags": [
      "alcotezt",
      "quick"
    ],
    "successful_runs": {
      "total_time": "9023",
      "count": "1"
    }
  },
  {
    "file": "src/lib_mec/test/test_curve25519_affine_edwards.ml",
    "title": "Curve25519 edwards form and affine coordinates: Group properties (check_bytes_one)",
    "tags": [
      "alcotezt",
      "quick"
    ],
    "successful_runs": {
      "total_time": "169",
      "count": "1"
    }
  },
  {
    "file": "src/lib_mec/test/test_bn254_projective.ml",
    "title": "BN254 projective form: Group properties (multiplication_properties_on_base_field_element)",
    "tags": [
      "alcotezt",
      "quick"
    ],
    "successful_runs": {
      "total_time": "859048",
      "count": "1"
    }
  },
  {
    "file": "src/lib_mec/test/test_bn254_affine.ml",
    "title": "BN254 affine form: value generation (random)",
    "tags": [
      "alcotezt",
      "quick"
    ],
    "successful_runs": {
      "total_time": "3323",
      "count": "1"
    }
  },
  {
    "file": "src/lib_mec/test/test_bls12_381_projective.ml",
    "title": "BLS12-381 G1 projective form: value generation (check bytes on random with to_bytes)",
    "tags": [
      "alcotezt",
      "quick"
    ],
    "successful_runs": {
      "total_time": "171334",
      "count": "1"
    }
  },
  {
    "file": "src/lib_mec/test/test_bls12_381_affine.ml",
    "title": "BLS12-381 G1 affine form: Group properties (opposite_equality)",
    "tags": [
      "alcotezt",
      "quick"
    ],
    "successful_runs": {
      "total_time": "16874",
      "count": "1"
    }
  },
  {
    "file": "src/lib_mec/test/test_bandersnatch_affine_weierstrass.ml",
    "title": "Bandersnatch Weierstrass form, affine coordinates: Group properties (mul_by_order_of_base_field_equals_element)",
    "tags": [
      "alcotezt",
      "quick"
    ],
    "successful_runs": {
      "total_time": "566157",
      "count": "1"
    }
  },
  {
    "file": "src/lib_mec/test/test_bandersnatch_affine_montgomery.ml",
    "title": "Bandersnatch Montgomery form and affine coordinates: Group properties (additive_commutativity)",
    "tags": [
      "alcotezt",
      "quick"
    ],
    "successful_runs": {
      "total_time": "29025",
      "count": "1"
    }
  },
  {
    "file": "src/lib_mec/test/test_babyjubjub_reduced.ml",
    "title": "BabyJubjub reduced twisted edwards form: Serialisation (of_bytes_exn and to_bytes are inverse functions)",
    "tags": [
      "alcotezt",
      "quick"
    ],
    "successful_runs": {
      "total_time": "383",
      "count": "1"
    }
  },
  {
    "file": "src/lib_mec/test/test_babyjubjub.ml",
    "title": "BabyJubjub: value generation (double generates a valid point)",
    "tags": [
      "alcotezt",
      "quick"
    ],
    "successful_runs": {
      "total_time": "16660",
      "count": "1"
    }
  },
  {
    "file": "src/lib_lwt_result_stdlib/test/test_list_basic_lwt.ml",
    "title": "list-basic-lwt: init (init_p)",
    "tags": [
      "alcotezt",
      "quick"
    ],
    "successful_runs": {
      "total_time": "166",
      "count": "1"
    }
  },
  {
    "file": "src/lib_lwt_result_stdlib/test/test_hashtbl.ml",
    "title": "hashtbl: hashtbl-lwt (add_add)",
    "tags": [
      "alcotezt",
      "quick"
    ],
    "successful_runs": {
      "total_time": "231",
      "count": "1"
    }
  },
  {
    "file": "src/lib_hacl/test/test_hacl.ml",
    "title": "tezos-crypto: blake2b (1)",
    "tags": [
      "alcotezt",
      "quick"
    ],
    "successful_runs": {
      "total_time": "156",
      "count": "1"
    }
  },
  {
    "file": "src/lib_clic/test/test_clic.ml",
    "title": "Tezos_clic: auto-completion-parameters (prefix: when given arg matches exactly one option, suggests that option)",
    "tags": [
      "alcotezt",
      "quick"
    ],
    "successful_runs": {
      "total_time": "228",
      "count": "1"
    }
  },
  {
    "file": "src/lib_bls12_381_signature/test/test_signature.ml",
    "title": "BLS Signature: MinPk Auxiliary functions (unsafe_pk_of_bytes accepts points not in the subgroup)",
    "tags": [
      "alcotezt",
      "quick"
    ],
    "successful_runs": {
      "total_time": "180",
      "count": "1"
    }
  },
  {
    "file": "src/lib_bls12_381_signature/test/test_signature.ml",
    "title": "BLS Signature: MinSig Auxiliary functions (signature_of_bytes_opt does verify the input represents a point in the subgroup)",
    "tags": [
      "alcotezt",
      "quick"
    ],
    "successful_runs": {
      "total_time": "937",
      "count": "1"
    }
  },
  {
    "file": "src/lib_bls12_381_signature/test/test_aggregated_signature.ml",
    "title": "BLS Aggregated Signature: minPk Properties for Basic (Sign and verify corret signature with some incorrect pks and correct msgs)",
    "tags": [
      "alcotezt",
      "quick"
    ],
    "successful_runs": {
      "total_time": "105534",
      "count": "1"
    }
  },
  {
    "file": "src/lib_bls12_381_polynomial/test/test_main.ml",
    "title": "PlonK: Coefficients (evaluation at any point of the zero polynomial)",
    "tags": [
      "alcotezt",
      "quick"
    ],
    "successful_runs": {
      "total_time": "529",
      "count": "1"
    }
  },
  {
    "file": "src/lib_bls12_381_polynomial/test/test_main.ml",
    "title": "PlonK: Polynomial_c (evaluate)",
    "tags": [
      "alcotezt",
      "quick"
    ],
    "successful_runs": {
      "total_time": "2115",
      "count": "1"
    }
  },
  {
    "file": "src/lib_bls12_381/test/test_gt.ml",
    "title": "GT: Group properties (multiply_by_one_does_nothing)",
    "tags": [
      "alcotezt",
      "quick"
    ],
    "successful_runs": {
      "total_time": "93915",
      "count": "1"
    }
  },
  {
    "file": "src/lib_bls12_381/test/test_g2.ml",
    "title": "G2: Curve properties (additive_associativity)",
    "tags": [
      "alcotezt",
      "quick"
    ],
    "successful_runs": {
      "total_time": "275028",
      "count": "1"
    }
  },
  {
    "file": "src/lib_bls12_381/test/test_g1.ml",
    "title": "G1: Curve properties (opposite_of_scalar_is_opposite_of_ec)",
    "tags": [
      "alcotezt",
      "quick"
    ],
    "successful_runs": {
      "total_time": "42151",
      "count": "1"
    }
  },
  {
    "file": "src/lib_bls12_381/test/test_fr.ml",
    "title": "Fr: Value generation for field of order 5243587517512619047944774050818596583769055250052763782260365869 (double_with_one)",
    "tags": [
      "alcotezt",
      "quick"
    ],
    "successful_runs": {
      "total_time": "247",
      "count": "1"
    }
  },
  {
    "file": "src/lib_bls12_381/test/test_fr.ml",
    "title": "Fr: Field properties for field of order 5243587517512619047944774050818596583769055250052763782260365869 (pow addition property)",
    "tags": [
      "alcotezt",
      "quick"
    ],
    "successful_runs": {
      "total_time": "170",
      "count": "1"
    }
  },
  {
    "file": "src/lib_benchmark/test/test_model.ml",
    "title": "tezos-benchmark: model (synthesize)",
    "tags": [
      "alcotezt",
      "quick"
    ],
    "successful_runs": {
      "total_time": "300",
      "count": "1"
    }
  },
  {
    "file": "etherlink/tezt/tests/evm_sequencer.ml",
    "title": "Alpha: Sequencer publishes the blueprints to L1",
    "tags": [
      "admin_client",
      "alpha",
      "client",
      "data",
      "evm",
      "evm_kernel",
      "evm_node",
      "node",
      "sequencer",
      "smart_rollup_installer",
      "smart_rollup_node"
    ],
    "successful_runs": {
      "total_time": "15870319",
      "count": "1"
    }
  },
  {
    "file": "etherlink/tezt/tests/evm_rollup.ml",
    "title": "Alpha: RPC batch requests (sequencer)",
    "tags": [
      "admin_client",
      "alpha",
      "batch",
      "client",
      "evm",
      "evm_kernel",
      "evm_node",
      "node",
      "rpc",
      "sequencer",
      "smart_rollup_installer",
      "smart_rollup_node"
    ],
    "successful_runs": {
      "total_time": "6855619",
      "count": "1"
    }
  },
  {
    "file": "etherlink/tezt/tests/evm_rollup.ml",
    "title": "Alpha: Can submit many transactions. (sequencer)",
    "tags": [
      "admin_client",
      "alpha",
      "client",
      "evm",
      "evm_kernel",
      "evm_node",
      "node",
      "sequencer",
      "smart_rollup_installer",
      "smart_rollup_node",
      "tx_nonce"
    ],
    "successful_runs": {
      "total_time": "17712847",
      "count": "1"
    }
  },
  {
    "file": "tezt/tests/config.ml",
    "title": "config reset consistency",
    "tags": [
      "config",
      "node",
      "reset"
    ],
    "successful_runs": {
      "total_time": "1767024",
      "count": "1"
    }
  },
  {
    "file": "tezt/tests/p2p.ml",
    "title": "Test expected_peer_id",
    "tags": [
      "connections",
      "expected_peer_id",
      "node",
      "p2p"
    ],
    "successful_runs": {
      "total_time": "2076134",
      "count": "1"
    }
  },
  {
    "file": "tezt/tests/riscv_sandbox.ml",
    "title": "Run the dummy kernel",
    "tags": [
      "regression",
      "dummy",
      "riscv_sandbox",
      "riscv",
      "sandbox"
    ],
    "successful_runs": {
      "total_time": "138579",
      "count": "1"
    }
  },
  {
    "file": "tezt/tests/dal.ml",
    "title": "Oxford->Alpha: test plugin update",
    "tags": [
      "admin_client",
      "alpha",
      "client",
      "dal",
      "dal_node",
      "migration",
      "node",
      "oxford",
      "plugin",
      "tezos2"
    ],
    "successful_runs": {
      "total_time": "47293369",
      "count": "1"
    }
  },
  {
    "file": "tezt/tests/baker_operations_cli_options.ml",
    "title": "Alpha: external operations, missing operations (empty) file",
    "tags": [
      "admin_client",
      "alpha",
      "baker",
      "client",
      "empty",
      "external_operations",
      "file",
      "layer1",
      "node"
    ],
    "successful_runs": {
      "total_time": "2611896",
      "count": "1"
    }
  },
  {
    "file": "tezt/tests/baking.ml",
    "title": "Oxford: External operations are ordered (1 transfers, max 1 operations)",
    "tags": [
      "admin_client",
      "baking",
      "client",
      "node",
      "operations_pool",
      "oxford"
    ],
    "successful_runs": {
      "total_time": "6282493",
      "count": "1"
    }
  },
  {
    "file": "tezt/tests/big_map_arity.ml",
    "title": "Alpha: Test EMPTY_BIG_MAP arity error",
    "tags": [
      "admin_client",
      "alpha",
      "client",
      "michelson",
      "typechecking"
    ],
    "successful_runs": {
      "total_time": "648005",
      "count": "1"
    }
  },
  {
    "file": "tezt/tests/client_keys.ml",
    "title": "Alpha: Test remember contract",
    "tags": [
      "admin_client",
      "alpha",
      "client",
      "contract",
      "remember"
    ],
    "successful_runs": {
      "total_time": "2290716",
      "count": "1"
    }
  },
  {
    "file": "tezt/tests/contract_onchain_opcodes.ml",
    "title": "Nairobi: Contract onchain opcodes: test_trace_origination_compare_big_type2",
    "tags": [
      "regression",
      "admin_client",
      "client",
      "contract",
      "nairobi",
      "onchain",
      "opcodes"
    ],
    "successful_runs": {
      "total_time": "740167",
      "count": "1"
    }
  },
  {
    "file": "tezt/tests/contract_opcodes.ml",
    "title": "Oxford: opcodes [str_id--storage921624073--input93477117]",
    "tags": [
      "regression",
      "admin_client",
      "client",
      "michelson",
      "oxford"
    ],
    "successful_runs": {
      "total_time": "346011",
      "count": "1"
    }
  },
  {
    "file": "tezt/tests/contract_opcodes.ml",
    "title": "Oxford: opcodes [pair_id--storage921624073--input908807505]",
    "tags": [
      "regression",
      "admin_client",
      "client",
      "michelson",
      "oxford"
    ],
    "successful_runs": {
      "total_time": "317389",
      "count": "1"
    }
  },
  {
    "file": "tezt/tests/contract_opcodes.ml",
    "title": "Oxford: opcodes [and--storage921624073--input106930123]",
    "tags": [
      "regression",
      "admin_client",
      "client",
      "michelson",
      "oxford"
    ],
    "successful_runs": {
      "total_time": "319350",
      "count": "1"
    }
  },
  {
    "file": "tezt/tests/contract_opcodes.ml",
    "title": "Alpha: opcodes [and--storage921624073--input908807505]",
    "tags": [
      "regression",
      "admin_client",
      "alpha",
      "client",
      "michelson"
    ],
    "successful_runs": {
      "total_time": "323534",
      "count": "1"
    }
  },
  {
    "file": "tezt/tests/contract_opcodes.ml",
    "title": "Alpha: opcodes [xor--storage921624073--input506603577]",
    "tags": [
      "regression",
      "admin_client",
      "alpha",
      "client",
      "michelson"
    ],
    "successful_runs": {
      "total_time": "323712",
      "count": "1"
    }
  },
  {
    "file": "tezt/tests/contract_opcodes.ml",
    "title": "Nairobi: opcodes [concat_hello_bytes--storage457300675--input354091714]",
    "tags": [
      "regression",
      "admin_client",
      "client",
      "michelson",
      "nairobi"
    ],
    "successful_runs": {
      "total_time": "328794",
      "count": "1"
    }
  },
  {
    "file": "tezt/tests/contract_opcodes.ml",
    "title": "Oxford: opcodes [map_id--storage457300675--input599923743]",
    "tags": [
      "regression",
      "admin_client",
      "client",
      "michelson",
      "oxford"
    ],
    "successful_runs": {
      "total_time": "328829",
      "count": "1"
    }
  },
  {
    "file": "tezt/tests/contract_opcodes.ml",
    "title": "Alpha: opcodes [map_mem_nat--storage56274299--input453441034]",
    "tags": [
      "regression",
      "admin_client",
      "alpha",
      "client",
      "michelson"
    ],
    "successful_runs": {
      "total_time": "326708",
      "count": "1"
    }
  },
  {
    "file": "tezt/tests/contract_opcodes.ml",
    "title": "Nairobi: opcodes [big_map_mem_string--storage936682951--input905318451]",
    "tags": [
      "regression",
      "admin_client",
      "client",
      "michelson",
      "nairobi"
    ],
    "successful_runs": {
      "total_time": "315378",
      "count": "1"
    }
  },
  {
    "file": "tezt/tests/contract_opcodes.ml",
    "title": "Nairobi: opcodes [set_iter--storage492856247--input701684511]",
    "tags": [
      "regression",
      "admin_client",
      "client",
      "michelson",
      "nairobi"
    ],
    "successful_runs": {
      "total_time": "314810",
      "count": "1"
    }
  },
  {
    "file": "tezt/tests/contract_opcodes.ml",
    "title": "Nairobi: opcodes [if--storage921624073--input570553153]",
    "tags": [
      "regression",
      "admin_client",
      "client",
      "michelson",
      "nairobi"
    ],
    "successful_runs": {
      "total_time": "316080",
      "count": "1"
    }
  },
  {
    "file": "tezt/tests/contract_opcodes.ml",
    "title": "Alpha: opcodes [exec_concat--storage398998998--input79230375]",
    "tags": [
      "regression",
      "admin_client",
      "alpha",
      "client",
      "michelson"
    ],
    "successful_runs": {
      "total_time": "316334",
      "count": "1"
    }
  },
  {
    "file": "tezt/tests/contract_opcodes.ml",
    "title": "Oxford: opcodes [ediv_mutez--storage977883604--input734264738]",
    "tags": [
      "regression",
      "admin_client",
      "client",
      "michelson",
      "oxford"
    ],
    "successful_runs": {
      "total_time": "322530",
      "count": "1"
    }
  },
  {
    "file": "tezt/tests/contract_opcodes.ml",
    "title": "Nairobi: opcodes [mul--storage125992234--input125992234]",
    "tags": [
      "regression",
      "admin_client",
      "client",
      "michelson",
      "nairobi"
    ],
    "successful_runs": {
      "total_time": "336892",
      "count": "1"
    }
  },
  {
    "file": "tezt/tests/contract_opcodes.ml",
    "title": "Alpha: opcodes [self_with_default_entrypoint--storage125992234--input125992234]",
    "tags": [
      "regression",
      "admin_client",
      "alpha",
      "client",
      "michelson"
    ],
    "successful_runs": {
      "total_time": "317769",
      "count": "1"
    }
  },
  {
    "file": "tezt/tests/contract_opcodes.ml",
    "title": "Alpha: opcodes [bls12_381_z_fr_nat--storage994282947--input564400327]",
    "tags": [
      "regression",
      "admin_client",
      "alpha",
      "client",
      "michelson"
    ],
    "successful_runs": {
      "total_time": "330591",
      "count": "1"
    }
  },
  {
    "file": "tezt/tests/contract_opcodes.ml",
    "title": "Oxford: opcodes [bls12_381_z_fr_nat--storage739946440--input166435292]",
    "tags": [
      "regression",
      "admin_client",
      "client",
      "michelson",
      "oxford"
    ],
    "successful_runs": {
      "total_time": "317623",
      "count": "1"
    }
  },
  {
    "file": "tezt/tests/contract_opcodes.ml",
    "title": "Nairobi: test Michelson opcodes: map_map_side_effect",
    "tags": [
      "regression",
      "admin_client",
      "client",
      "michelson",
      "nairobi"
    ],
    "successful_runs": {
      "total_time": "1269159",
      "count": "1"
    }
  },
  {
    "file": "tezt/tests/contract_macros.ml",
    "title": "Nairobi: macros [max_in_list--storage921624073--input270034584]",
    "tags": [
      "admin_client",
      "client",
      "macros",
      "michelson",
      "nairobi"
    ],
    "successful_runs": {
      "total_time": "328083",
      "count": "1"
    }
  },
  {
    "file": "tezt/tests/contract_macros.ml",
    "title": "Oxford: macros [assert_cmplt--storage125992234--input280547028]",
    "tags": [
      "admin_client",
      "client",
      "macros",
      "michelson",
      "oxford"
    ],
    "successful_runs": {
      "total_time": "324805",
      "count": "1"
    }
  },
  {
    "file": "tezt/tests/contract_macros.ml",
    "title": "Alpha: macro failure [assert_gt--storage125992234--input1011138251]",
    "tags": [
      "admin_client",
      "alpha",
      "client",
      "macros",
      "michelson"
    ],
    "successful_runs": {
      "total_time": "307910",
      "count": "1"
    }
  },
  {
    "file": "tezt/tests/contract_macros.ml",
    "title": "Nairobi: Macro expansion: macros/assert",
    "tags": [
      "regression",
      "admin_client",
      "client",
      "macros",
      "michelson",
      "nairobi"
    ],
    "successful_runs": {
      "total_time": "324525",
      "count": "1"
    }
  },
  {
    "file": "tezt/tests/contract_macros.ml",
    "title": "Oxford: Macro expansion: macros/build_list",
    "tags": [
      "regression",
      "admin_client",
      "client",
      "macros",
      "michelson",
      "oxford"
    ],
    "successful_runs": {
      "total_time": "309177",
      "count": "1"
    }
  },
  {
    "file": "tezt/tests/double_consensus.ml",
    "title": "Nairobi: operation too old",
    "tags": [
      "accuser",
      "accuser_ptnairob",
      "admin_client",
      "client",
      "layer1",
      "nairobi",
      "node",
      "old",
      "operation"
    ],
    "successful_runs": {
      "total_time": "4956750",
      "count": "1"
    }
  },
  {
    "file": "tezt/tests/gas_bound.ml",
    "title": "Nairobi: first explosion big type",
    "tags": [
      "admin_client",
      "client",
      "gas_bound",
      "michelson",
      "nairobi"
    ],
    "successful_runs": {
      "total_time": "581365",
      "count": "1"
    }
  },
  {
    "file": "tezt/tests/manager_operations.ml",
    "title": "Nairobi: Simple revelation with a wrong public key",
    "tags": [
      "admin_client",
      "batch",
      "client",
      "codec",
      "nairobi",
      "node",
      "reveal",
      "revelation"
    ],
    "successful_runs": {
      "total_time": "8201835",
      "count": "1"
    }
  },
  {
    "file": "tezt/tests/manager_operations.ml",
    "title": "Alpha: Simple transfer counter in the past",
    "tags": [
      "admin_client",
      "alpha",
      "client",
      "codec",
      "node",
      "transaction",
      "transfer"
    ],
    "successful_runs": {
      "total_time": "5741564",
      "count": "1"
    }
  },
  {
    "file": "tezt/tests/manager_operations.ml",
    "title": "Oxford: Test batch with wrong counters (+1, +2, +2)",
    "tags": [
      "admin_client",
      "batch",
      "client",
      "counters",
      "node",
      "oxford",
      "transaction",
      "transfer"
    ],
    "successful_runs": {
      "total_time": "4692492",
      "count": "1"
    }
  },
  {
    "file": "tezt/tests/mockup.ml",
    "title": "Oxford: (Mockup) Transfer same participants (asynchronous)",
    "tags": [
      "admin_client",
      "asynchronous",
      "client",
      "mockup",
      "oxford",
      "transfer"
    ],
    "successful_runs": {
      "total_time": "966459",
      "count": "1"
    }
  },
  {
    "file": "tezt/tests/mockup.ml",
    "title": "Alpha: (Mockup) origination fees from unrevealed",
    "tags": [
      "admin_client",
      "alpha",
      "client",
      "mockup",
      "transfer"
    ],
    "successful_runs": {
      "total_time": "1331732",
      "count": "1"
    }
  },
  {
    "file": "tezt/tests/mockup.ml",
    "title": "Alpha: (Mockup) Mockup mixed protocols.",
    "tags": [
      "admin_client",
      "alpha",
      "client",
      "mockup",
      "rpc",
      "transfer"
    ],
    "successful_runs": {
      "total_time": "9713925",
      "count": "1"
    }
  },
  {
    "file": "tezt/tests/mockup.ml",
    "title": "Nairobi: (Mockup) Create mockup config show / init roundtrip [None,None,show,init]",
    "tags": [
      "admin_client",
      "base_dir",
      "client",
      "init",
      "mockup",
      "nairobi",
      "roundtrip",
      "show"
    ],
    "successful_runs": {
      "total_time": "1289273",
      "count": "1"
    }
  },
  {
    "file": "tezt/tests/normalize.ml",
    "title": "Nairobi: Test normalize with legacy flag",
    "tags": [
      "regression",
      "admin_client",
      "client",
      "nairobi",
      "normalize"
    ],
    "successful_runs": {
      "total_time": "927013",
      "count": "1"
    }
  },
  {
    "file": "tezt/tests/prevalidator.ml",
    "title": "Nairobi: Precheck refused an operation which empties a balance",
    "tags": [
      "admin_client",
      "balance",
      "client",
      "empty",
      "mempool",
      "nairobi",
      "node",
      "precheck"
    ],
    "successful_runs": {
      "total_time": "3649429",
      "count": "1"
    }
  },
  {
    "file": "tezt/tests/proxy.ml",
    "title": "Nairobi: (Proxy) (/chains/main/blocks/head/votes/ballots) No useless RPC call",
    "tags": [
      "admin_client",
      "client",
      "get",
      "layer1",
      "nairobi",
      "node",
      "proxy",
      "rpc"
    ],
    "successful_runs": {
      "total_time": "2736920",
      "count": "1"
    }
  },
  {
    "file": "tezt/tests/RPC_test.ml",
    "title": "Oxford: (mode light) RPC regression tests: misc_protocol",
    "tags": [
      "regression",
      "admin_client",
      "client",
      "light",
      "misc_protocol",
      "node",
      "oxford",
      "rpc"
    ],
    "successful_runs": {
      "total_time": "6321367",
      "count": "1"
    }
  },
  {
    "file": "tezt/tests/RPC_test.ml",
    "title": "Nairobi: (mode proxy_server_rpc) RPC regression tests: votes",
    "tags": [
      "regression",
      "admin_client",
      "client",
      "nairobi",
      "node",
      "proxy_server",
      "proxy_server_rpc",
      "rpc",
      "votes"
    ],
    "successful_runs": {
      "total_time": "11948800",
      "count": "1"
    }
  },
  {
    "file": "tezt/tests/rpc_versioning_attestation.ml",
    "title": "Oxford: Preapply operation with preconsensus operations",
    "tags": [
      "admin_client",
      "client",
      "consensus",
      "layer1",
      "node",
      "operations",
      "oxford",
      "pre",
      "preapply",
      "rpc",
      "versioning"
    ],
    "successful_runs": {
      "total_time": "7473389",
      "count": "1"
    }
  },
  {
    "file": "tezt/tests/replace_by_fees.ml",
    "title": "Oxford: Second op's fees are equal to replacement fees threshold",
    "tags": [
      "admin_client",
      "client",
      "fee",
      "manager",
      "node",
      "oxford",
      "replace"
    ],
    "successful_runs": {
      "total_time": "6844486",
      "count": "1"
    }
  },
  {
    "file": "tezt/tests/replace_by_fees.ml",
    "title": "Alpha: Replace a replacement op with enough fees",
    "tags": [
      "admin_client",
      "alpha",
      "client",
      "fee",
      "manager",
      "node",
      "replace"
    ],
    "successful_runs": {
      "total_time": "9233150",
      "count": "1"
    }
  },
  {
    "file": "tezt/tests/replace_by_fees.ml",
    "title": "Alpha: First operation not validated, second one validated with default fees",
    "tags": [
      "admin_client",
      "alpha",
      "client",
      "fee",
      "manager",
      "node",
      "replace"
    ],
    "successful_runs": {
      "total_time": "5803229",
      "count": "1"
    }
  },
  {
    "file": "tezt/tests/runtime_script_failure.ml",
    "title": "Alpha: Runtime Script Failure: client force",
    "tags": [
      "admin_client",
      "alpha",
      "client",
      "node",
      "runtime_script_failure"
    ],
    "successful_runs": {
      "total_time": "3711058",
      "count": "1"
    }
  },
  {
    "file": "tezt/tests/sapling.ml",
    "title": "Oxford: test sapling different memo size",
    "tags": [
      "admin_client",
      "client",
      "memo_size",
      "oxford",
      "sapling",
      "shield"
    ],
    "successful_runs": {
      "total_time": "2801324",
      "count": "1"
    }
  },
  {
    "file": "tezt/tests/script_conversion.ml",
    "title": "Oxford: convert script",
    "tags": [
      "admin_client",
      "client",
      "conversion",
      "michelson",
      "oxford"
    ],
    "successful_runs": {
      "total_time": "4232713",
      "count": "1"
    }
  },
  {
    "file": "tezt/tests/script_illtyped.ml",
    "title": "Oxford: Test Deprecated Typecheck in Legacy - legacy/originator",
    "tags": [
      "admin_client",
      "client",
      "michelson",
      "oxford",
      "script",
      "typechecking"
    ],
    "successful_runs": {
      "total_time": "774269",
      "count": "1"
    }
  },
  {
    "file": "tezt/tests/script_illtyped.ml",
    "title": "Nairobi: Test Ill Typecheck - multiple_parameter_field",
    "tags": [
      "admin_client",
      "client",
      "michelson",
      "nairobi",
      "script",
      "typechecking"
    ],
    "successful_runs": {
      "total_time": "648877",
      "count": "1"
    }
  },
  {
    "file": "tezt/tests/script_illtyped.ml",
    "title": "Alpha: Test Ill Typecheck - map_failwith",
    "tags": [
      "admin_client",
      "alpha",
      "client",
      "michelson",
      "script",
      "typechecking"
    ],
    "successful_runs": {
      "total_time": "658555",
      "count": "1"
    }
  },
  {
    "file": "tezt/tests/sc_rollup.ml",
    "title": "Alpha: arith - refutation games winning strategies (parallel_games_0)",
    "tags": [
      "admin_client",
      "alpha",
      "arith",
      "client",
      "etherlink",
      "node",
      "refutation",
      "sc_rollup",
      "smart_rollup_node"
    ],
    "successful_runs": {
      "total_time": "20599224",
      "count": "1"
    }
  },
  {
    "file": "tezt/tests/sc_rollup.ml",
    "title": "Nairobi: arith - reveal more than 4kB of data",
    "tags": [
      "4k",
      "admin_client",
      "arith",
      "client",
      "etherlink",
      "nairobi",
      "node",
      "reveals",
      "sc_rollup",
      "smart_rollup_node"
    ],
    "successful_runs": {
      "total_time": "3846618",
      "count": "1"
    }
  },
  {
    "file": "tezt/tests/sc_rollup.ml",
    "title": "Nairobi: wasm_2_0_0 - origination of a SCORU executes without error",
    "tags": [
      "regression",
      "admin_client",
      "client",
      "etherlink",
      "nairobi",
      "node",
      "origination",
      "sc_rollup",
      "wasm_2_0_0"
    ],
    "successful_runs": {
      "total_time": "2765624",
      "count": "1"
    }
  },
  {
    "file": "tezt/tests/sc_rollup.ml",
    "title": "Oxford: wasm_2_0_0 - rollup node - correct handling of commitments (handles_chain_reorgs)",
    "tags": [
      "admin_client",
      "client",
      "commitment",
      "etherlink",
      "node",
      "oxford",
      "sc_rollup",
      "smart_rollup_node",
      "wasm_2_0_0"
    ],
    "successful_runs": {
      "total_time": "32008770",
      "count": "1"
    }
  },
  {
    "file": "tezt/tests/sc_rollup.ml",
    "title": "Oxford: arith - output exec (0, entrypoint: %default, eager: 0, intern, no_parameters_ty)",
    "tags": [
      "admin_client",
      "arith",
      "client",
      "codec",
      "default",
      "etherlink",
      "intern",
      "no_parameters_ty",
      "node",
      "outbox",
      "oxford",
      "sc_rollup",
      "smart_rollup_node"
    ],
    "successful_runs": {
      "total_time": "11396137",
      "count": "1"
    }
  },
  {
    "file": "tezt/tests/test_contract_bls12_381.ml",
    "title": "Oxford: Bls12_381 contract primitives, g2: mul",
    "tags": [
      "regression",
      "admin_client",
      "bls12_381",
      "client",
      "contract",
      "crypto",
      "g2",
      "michelson",
      "mul",
      "oxford"
    ],
    "successful_runs": {
      "total_time": "46789318",
      "count": "1"
    }
  },
  {
    "file": "tezt/tests/views.ml",
    "title": "Oxford: self after view - self_after_fib_view",
    "tags": [
      "admin_client",
      "client",
      "michelson",
      "oxford"
    ],
    "successful_runs": {
      "total_time": "1748950",
      "count": "1"
    }
  },
  {
    "file": "tezt/tests/views.ml",
    "title": "Alpha: Typecheck view - view_toplevel_dupable_type_output",
    "tags": [
      "admin_client",
      "alpha",
      "client",
      "michelson"
    ],
    "successful_runs": {
      "total_time": "671090",
      "count": "1"
    }
  },
  {
    "file": "tezt/tests/views.ml",
    "title": "Nairobi: Typecheck view - view_op_bad_name_invalid_char_set",
    "tags": [
      "admin_client",
      "client",
      "michelson",
      "nairobi"
    ],
    "successful_runs": {
      "total_time": "712589",
      "count": "1"
    }
  },
  {
    "file": "tezt/tests/dac.ml",
    "title": "Alpha: Testing Full DAC infrastructure (test v1/get_pages)",
    "tags": [
      "admin_client",
      "alpha",
      "client",
      "dac",
      "dac_node",
      "node",
      "smart_rollup_node"
    ],
    "successful_runs": {
      "total_time": "3746552",
      "count": "1"
    }
  },
  {
    "file": "tezt/tests/dac.ml",
    "title": "Oxford: Testing Full DAC infrastructure (test --allow_v1_api feature flag)",
    "tags": [
      "admin_client",
      "client",
      "dac",
      "dac_node",
      "node",
      "oxford",
      "smart_rollup_node"
    ],
    "successful_runs": {
      "total_time": "3798197",
      "count": "1"
    }
  },
  {
    "file": "tezt/tests/dal.ml",
    "title": "Alpha: Testing DAL rollup and node with L1 (rollup_node_downloads_slots)",
    "tags": [
      "regression",
      "admin_client",
      "alpha",
      "client",
      "dal",
      "dal_node",
      "node",
      "smart_rollup_node",
      "tezos2"
    ],
    "successful_runs": {
      "total_time": "51162723",
      "count": "1"
    }
  }
]