[
  {
    "file": "src/proto_alpha/lib_protocol/test/unit/test_sc_rollup_storage.ml",
    "title": "alpha: sc rollup storage (publish twice)",
    "tags": [
      "alcotezt",
      "quick",
      "alpha"
    ],
    "successful_runs": {
      "total_time": "20982",
      "count": "1"
    }
  },
  {
    "file": "src/proto_alpha/lib_protocol/test/unit/test_sc_rollup_inbox.ml",
    "title": "alpha: sc rollup inbox (Empty merkelized payload hashes proof fails.)",
    "tags": [
      "alcotezt",
      "quick",
      "alpha"
    ],
    "successful_runs": {
      "total_time": "407",
      "count": "1"
    }
  },
  {
    "file": "src/proto_alpha/lib_protocol/test/unit/test_level_module.ml",
    "title": "alpha: level module (create_cycle_eras)",
    "tags": [
      "alcotezt",
      "quick",
      "alpha"
    ],
    "successful_runs": {
      "total_time": "3021",
      "count": "1"
    }
  },
  {
    "file": "src/proto_alpha/lib_protocol/test/unit/test_bond_id_repr.ml",
    "title": "alpha: Bond_id_repr.ml (Deserializing invalid bond ids fails)",
    "tags": [
      "alcotezt",
      "quick",
      "alpha"
    ],
    "successful_runs": {
      "total_time": "231",
      "count": "1"
    }
  },
  {
    "file": "src/proto_alpha/lib_protocol/test/regression/test_logging.ml",
    "title": "alpha: comb-get",
    "tags": [
      "regression",
      "protocol",
      "regression",
      "logging"
    ],
    "successful_runs": {
      "total_time": "26023",
      "count": "1"
    }
  },
  {
    "file": "src/proto_alpha/lib_protocol/test/integration/validate/test_manager_operation_validation.ml",
    "title": "alpha: single manager validation (scoru arith disabled)",
    "tags": [
      "alcotezt",
      "quick",
      "alpha"
    ],
    "successful_runs": {
      "total_time": "17560297",
      "count": "1"
    }
  },
  {
    "file": "src/proto_alpha/lib_protocol/test/integration/operations/test_voting.ml",
    "title": "alpha: voting (Proposals invalid signature)",
    "tags": [
      "alcotezt",
      "quick",
      "alpha"
    ],
    "successful_runs": {
      "total_time": "14225",
      "count": "1"
    }
  },
  {
    "file": "src/proto_alpha/lib_protocol/test/integration/operations/test_transfer.ml",
    "title": "alpha: transfer (balance too low with two transfers)",
    "tags": [
      "alcotezt",
      "quick",
      "alpha"
    ],
    "successful_runs": {
      "total_time": "16827",
      "count": "1"
    }
  },
  {
    "file": "src/proto_alpha/lib_protocol/test/integration/operations/test_sc_rollup.ml",
    "title": "alpha: sc rollup (Submit a commitment with a non-whitelisted staker)",
    "tags": [
      "alcotezt",
      "quick",
      "alpha"
    ],
    "successful_runs": {
      "total_time": "13473",
      "count": "1"
    }
  },
  {
    "file": "src/proto_alpha/lib_protocol/test/integration/operations/test_reveal.ml",
    "title": "alpha: revelation (cannot duplicate valid reveals in batch)",
    "tags": [
      "alcotezt",
      "quick",
      "alpha"
    ],
    "successful_runs": {
      "total_time": "13828",
      "count": "1"
    }
  },
  {
    "file": "src/proto_alpha/lib_protocol/test/integration/operations/test_origination.ml",
    "title": "alpha: orgination (balances_credit)",
    "tags": [
      "alcotezt",
      "quick",
      "alpha"
    ],
    "successful_runs": {
      "total_time": "12839",
      "count": "1"
    }
  },
  {
    "file": "src/proto_alpha/lib_protocol/test/integration/michelson/test_ticket_operations_diff.ml",
    "title": "alpha: ticket operations diff (originate with empty ticket list)",
    "tags": [
      "alcotezt",
      "quick",
      "alpha"
    ],
    "successful_runs": {
      "total_time": "14300",
      "count": "1"
    }
  },
  {
    "file": "src/proto_alpha/lib_protocol/test/integration/michelson/test_ticket_balance.ml",
    "title": "alpha: ticket balance (join)",
    "tags": [
      "alcotezt",
      "quick",
      "alpha"
    ],
    "successful_runs": {
      "total_time": "20122",
      "count": "1"
    }
  },
  {
    "file": "src/proto_alpha/lib_protocol/test/integration/consensus/test_frozen_deposits.ml",
    "title": "alpha: frozen deposits (set limit with overdelegation)",
    "tags": [
      "alcotezt",
      "quick",
      "alpha"
    ],
    "successful_runs": {
      "total_time": "107757",
      "count": "1"
    }
  },
  {
    "file": "src/proto_alpha/lib_protocol/test/integration/consensus/test_double_baking.ml",
    "title": "alpha: double baking (just in time double baking evidence)",
    "tags": [
      "alcotezt",
      "quick",
      "alpha"
    ],
    "successful_runs": {
      "total_time": "38480",
      "count": "1"
    }
  },
  {
    "file": "src/proto_alpha/lib_protocol/test/integration/consensus/test_delegation.ml",
    "title": "alpha: delegation (contracts not registered as delegate can remove their delegation (small fee))",
    "tags": [
      "alcotezt",
      "quick",
      "alpha"
    ],
    "successful_runs": {
      "total_time": "14503",
      "count": "1"
    }
  },
  {
    "file": "src/proto_alpha/lib_protocol/test/integration/test_adaptive_issuance_roundtrip.ml",
    "title": "alpha: adaptive issuance roundtrip (Test double roundtrip: AI activated, external stake, wait after stake, half then full unstake)",
    "tags": [
      "alcotezt",
      "quick",
      "alpha"
    ],
    "successful_runs": {
      "total_time": "519502",
      "count": "1"
    }
  },
  {
    "file": "src/proto_alpha/lib_protocol/test/integration/test_adaptive_issuance_roundtrip.ml",
    "title": "alpha: adaptive issuance roundtrip (Test simple slashing: ns_enable = true, Yes AI, double attesting, denounce next cycle, another slash, double attesting)",
    "tags": [
      "alcotezt",
      "quick",
      "alpha"
    ],
    "successful_runs": {
      "total_time": "261927",
      "count": "1"
    }
  },
  {
    "file": "src/proto_alpha/lib_protocol/test/integration/test_adaptive_issuance_roundtrip.ml",
    "title": "alpha: adaptive issuance roundtrip (Test simple slashing: ns_enable = false, No AI, double preattesting, denounce same cycle)",
    "tags": [
      "alcotezt",
      "quick",
      "alpha"
    ],
    "successful_runs": {
      "total_time": "74138",
      "count": "1"
    }
  },
  {
    "file": "src/proto_alpha/lib_protocol/test/integration/test_adaptive_issuance_roundtrip.ml",
    "title": "alpha: adaptive issuance roundtrip (Test slash timing: ns_enable = true, unstake, with a first slash, 4 cycles lag)",
    "tags": [
      "alcotezt",
      "quick",
      "alpha"
    ],
    "successful_runs": {
      "total_time": "93309",
      "count": "1"
    }
  },
  {
    "file": "src/proto_alpha/lib_protocol/test/integration/test_adaptive_issuance_roundtrip.ml",
    "title": "alpha: adaptive issuance roundtrip (Test unstake 1 mutez then slash: Yes AI, 7% slash)",
    "tags": [
      "alcotezt",
      "quick",
      "alpha"
    ],
    "successful_runs": {
      "total_time": "353687",
      "count": "1"
    }
  },
  {
    "file": "src/proto_alpha/lib_dac_plugin/test/test_dac_pages_encoding.ml",
    "title": "alpha: [Unit] Dac_pages_encoding.ml (Contents fitting in more pages can be retrieved after being saved - repeated pages (Merkle tree, V0))",
    "tags": [
      "alcotezt",
      "quick",
      "alpha"
    ],
    "successful_runs": {
      "total_time": "220",
      "count": "1"
    }
  },
  {
    "file": "src/proto_alpha/lib_client/test/test_michelson_v1_macros.ml",
    "title": "alpha: micheline v1 macros (assert cmpif expansion)",
    "tags": [
      "alcotezt",
      "quick",
      "alpha"
    ],
    "successful_runs": {
      "total_time": "260",
      "count": "1"
    }
  },
  {
    "file": "src/proto_018_Proxford/lib_protocol/test/unit/test_zk_rollup_storage.ml",
    "title": "018-Proxford: zk rollup storage (origination_pending_is_empty)",
    "tags": [
      "alcotezt",
      "quick",
      "oxford"
    ],
    "successful_runs": {
      "total_time": "1023790",
      "count": "1"
    }
  },
  {
    "file": "src/proto_018_Proxford/lib_protocol/test/unit/test_sc_rollup_storage.ml",
    "title": "018-Proxford: sc rollup storage (deposit then withdraw)",
    "tags": [
      "alcotezt",
      "quick",
      "oxford"
    ],
    "successful_runs": {
      "total_time": "9819",
      "count": "1"
    }
  },
  {
    "file": "src/proto_018_Proxford/lib_protocol/test/unit/test_consensus_key.ml",
    "title": "018-Proxford: Delegate consensus key (consensus_key_storage)",
    "tags": [
      "alcotezt",
      "quick",
      "oxford"
    ],
    "successful_runs": {
      "total_time": "7740",
      "count": "1"
    }
  },
  {
    "file": "src/proto_018_Proxford/lib_protocol/test/integration/operations/test_sc_rollup.ml",
    "title": "018-Proxford: sc rollup (transaction with invalid type)",
    "tags": [
      "alcotezt",
      "quick",
      "oxford"
    ],
    "successful_runs": {
      "total_time": "57723",
      "count": "1"
    }
  },
  {
    "file": "src/proto_018_Proxford/lib_protocol/test/integration/michelson/test_typechecking.ml",
    "title": "018-Proxford: typechecking (parse address)",
    "tags": [
      "alcotezt",
      "quick",
      "oxford"
    ],
    "successful_runs": {
      "total_time": "9768",
      "count": "1"
    }
  },
  {
    "file": "src/proto_018_Proxford/lib_protocol/test/integration/michelson/test_ticket_storage.ml",
    "title": "018-Proxford: ticket storage (no overlapping keys for ticketer)",
    "tags": [
      "alcotezt",
      "quick",
      "oxford"
    ],
    "successful_runs": {
      "total_time": "8042",
      "count": "1"
    }
  },
  {
    "file": "src/proto_018_Proxford/lib_protocol/test/integration/michelson/test_ticket_lazy_storage_diff.ml",
    "title": "018-Proxford: ticket lazy storage diff (allocate new no tickets)",
    "tags": [
      "alcotezt",
      "quick",
      "oxford"
    ],
    "successful_runs": {
      "total_time": "9429",
      "count": "1"
    }
  },
  {
    "file": "src/proto_018_Proxford/lib_protocol/test/integration/michelson/test_script_cache.ml",
    "title": "018-Proxford: script cache (entries show LRU behavior)",
    "tags": [
      "alcotezt",
      "quick",
      "oxford"
    ],
    "successful_runs": {
      "total_time": "50997",
      "count": "1"
    }
  },
  {
    "file": "src/proto_018_Proxford/lib_protocol/test/integration/michelson/test_sapling.ml",
    "title": "018-Proxford: sapling (root)",
    "tags": [
      "alcotezt",
      "quick",
      "oxford"
    ],
    "successful_runs": {
      "total_time": "22027",
      "count": "1"
    }
  },
  {
    "file": "src/proto_018_Proxford/lib_protocol/test/integration/gas/test_gas_levels.ml",
    "title": "018-Proxford: gas levels (Switches operation gas consumption from unlimited to limited)",
    "tags": [
      "alcotezt",
      "quick",
      "oxford"
    ],
    "successful_runs": {
      "total_time": "5196",
      "count": "1"
    }
  },
  {
    "file": "src/proto_018_Proxford/lib_protocol/test/integration/consensus/test_preattestation.ml",
    "title": "018-Proxford: preattestation (AppMode: ko:locked_round_not_before_block_round)",
    "tags": [
      "alcotezt",
      "quick",
      "oxford"
    ],
    "successful_runs": {
      "total_time": "10767",
      "count": "1"
    }
  },
  {
    "file": "src/proto_018_Proxford/lib_protocol/test/integration/consensus/test_double_preattestation.ml",
    "title": "018-Proxford: double preattestation (AppMode: ko: malformed_double_preattestation_denunciation_same_payload_hash_2)",
    "tags": [
      "alcotezt",
      "quick",
      "oxford"
    ],
    "successful_runs": {
      "total_time": "16113",
      "count": "1"
    }
  },
  {
    "file": "src/proto_018_Proxford/lib_protocol/test/integration/consensus/test_delegation.ml",
    "title": "018-Proxford: delegation (unregistered and revealed self-delegation (small fee))",
    "tags": [
      "alcotezt",
      "quick",
      "oxford"
    ],
    "successful_runs": {
      "total_time": "13725",
      "count": "1"
    }
  },
  {
    "file": "src/proto_018_Proxford/lib_protocol/test/integration/consensus/test_consensus_key.ml",
    "title": "018-Proxford: consensus key (drain delegate high balance, excluding ck, ck delegates)",
    "tags": [
      "alcotezt",
      "quick",
      "oxford"
    ],
    "successful_runs": {
      "total_time": "51259",
      "count": "1"
    }
  },
  {
    "file": "src/proto_018_Proxford/lib_protocol/test/integration/test_liquidity_baking.ml",
    "title": "018-Proxford: liquidity baking (liquidity baking originates three contracts when tzBTC does not exist and level indicates we are not on mainnet)",
    "tags": [
      "alcotezt",
      "quick",
      "oxford"
    ],
    "successful_runs": {
      "total_time": "9528",
      "count": "1"
    }
  },
  {
    "file": "src/proto_018_Proxford/lib_protocol/test/integration/test_constants.ml",
    "title": "018-Proxford: test constants (sc rollup commitment storage size correct)",
    "tags": [
      "alcotezt",
      "quick",
      "oxford"
    ],
    "successful_runs": {
      "total_time": "163",
      "count": "1"
    }
  },
  {
    "file": "src/proto_018_Proxford/lib_protocol/test/integration/test_adaptive_issuance_roundtrip.ml",
    "title": "018-Proxford: adaptive issuance roundtrip (Test no finalize: AI activated, external stake, no finalize with unstake if staked = 0)",
    "tags": [
      "alcotezt",
      "quick",
      "oxford"
    ],
    "successful_runs": {
      "total_time": "438979",
      "count": "1"
    }
  },
  {
    "file": "src/proto_018_Proxford/lib_protocol/test/integration/test_adaptive_issuance_roundtrip.ml",
    "title": "018-Proxford: adaptive issuance roundtrip (Test wait with rewards: block step)",
    "tags": [
      "alcotezt",
      "quick",
      "oxford"
    ],
    "successful_runs": {
      "total_time": "446135",
      "count": "1"
    }
  },
  {
    "file": "src/proto_018_Proxford/lib_protocol/test/integration/test_adaptive_issuance_roundtrip.ml",
    "title": "018-Proxford: adaptive issuance roundtrip (Test simple slashing: Yes AI, double preattesting, denounce next cycle, another slash, double attesting)",
    "tags": [
      "alcotezt",
      "quick",
      "oxford"
    ],
    "successful_runs": {
      "total_time": "256018",
      "count": "1"
    }
  },
  {
    "file": "src/proto_018_Proxford/lib_dal/test/test_dal_slot_frame_encoding.ml",
    "title": "018-Proxford: [Unit] Slot_framing_protocol.ml (Encoding of a slot over maximum size fails (V0))",
    "tags": [
      "alcotezt",
      "quick",
      "oxford"
    ],
    "successful_runs": {
      "total_time": "196",
      "count": "1"
    }
  },
  {
    "file": "src/proto_018_Proxford/lib_client/test/test_michelson_v1_macros.ml",
    "title": "018-Proxford: micheline v1 macros (carn and cdrn expansion)",
    "tags": [
      "alcotezt",
      "quick",
      "oxford"
    ],
    "successful_runs": {
      "total_time": "232",
      "count": "1"
    }
  },
  {
    "file": "src/proto_017_PtNairob/lib_protocol/test/unit/test_zk_rollup_storage.ml",
    "title": "017-PtNairob: zk rollup storage (update errors)",
    "tags": [
      "alcotezt",
      "quick",
      "nairobi"
    ],
    "successful_runs": {
      "total_time": "1034739",
      "count": "1"
    }
  },
  {
    "file": "src/proto_017_PtNairob/lib_protocol/test/unit/test_time_repr.ml",
    "title": "017-PtNairob: time (non-overflowing addition)",
    "tags": [
      "alcotezt",
      "quick",
      "nairobi"
    ],
    "successful_runs": {
      "total_time": "181",
      "count": "1"
    }
  },
  {
    "file": "src/proto_017_PtNairob/lib_protocol/test/unit/test_sc_rollup_storage.ml",
    "title": "017-PtNairob: sc rollup storage (cement with two stakers)",
    "tags": [
      "alcotezt",
      "quick",
      "nairobi"
    ],
    "successful_runs": {
      "total_time": "11470",
      "count": "1"
    }
  },
  {
    "file": "src/proto_017_PtNairob/lib_protocol/test/unit/test_round_repr.ml",
    "title": "017-PtNairob: round (level_offset_of_round)",
    "tags": [
      "alcotezt",
      "quick",
      "nairobi"
    ],
    "successful_runs": {
      "total_time": "163",
      "count": "1"
    }
  },
  {
    "file": "src/proto_017_PtNairob/lib_protocol/test/unit/test_level_module.ml",
    "title": "017-PtNairob: level module (level_from_raw)",
    "tags": [
      "alcotezt",
      "quick",
      "nairobi"
    ],
    "successful_runs": {
      "total_time": "5236",
      "count": "1"
    }
  },
  {
    "file": "src/proto_017_PtNairob/lib_protocol/test/pbt/test_carbonated_map.ml",
    "title": "017-PtNairob: Carbonated map (Update replace)",
    "tags": [
      "alcotezt",
      "quick",
      "nairobi"
    ],
    "successful_runs": {
      "total_time": "8894",
      "count": "1"
    }
  },
  {
    "file": "src/proto_017_PtNairob/lib_protocol/test/integration/operations/test_sc_rollup.ml",
    "title": "017-PtNairob: sc rollup (invalid output proof)",
    "tags": [
      "alcotezt",
      "quick",
      "nairobi"
    ],
    "successful_runs": {
      "total_time": "48959",
      "count": "1"
    }
  },
  {
    "file": "src/proto_017_PtNairob/lib_protocol/test/integration/operations/test_origination.ml",
    "title": "017-PtNairob: origination (not enough tez in contract to pay fee)",
    "tags": [
      "alcotezt",
      "quick",
      "nairobi"
    ],
    "successful_runs": {
      "total_time": "9549",
      "count": "1"
    }
  },
  {
    "file": "src/proto_017_PtNairob/lib_protocol/test/integration/michelson/test_typechecking.ml",
    "title": "017-PtNairob: typechecking (unparse view)",
    "tags": [
      "alcotezt",
      "quick",
      "nairobi"
    ],
    "successful_runs": {
      "total_time": "9725",
      "count": "1"
    }
  },
  {
    "file": "src/proto_017_PtNairob/lib_protocol/test/integration/michelson/test_ticket_lazy_storage_diff.ml",
    "title": "017-PtNairob: ticket lazy storage diff (mix lazy diffs)",
    "tags": [
      "alcotezt",
      "quick",
      "nairobi"
    ],
    "successful_runs": {
      "total_time": "11888",
      "count": "1"
    }
  },
  {
    "file": "src/proto_017_PtNairob/lib_protocol/test/integration/michelson/test_ticket_accounting.ml",
    "title": "017-PtNairob: ticket accounting (Diffs for adding to an existing big-map)",
    "tags": [
      "alcotezt",
      "quick",
      "nairobi"
    ],
    "successful_runs": {
      "total_time": "10879",
      "count": "1"
    }
  },
  {
    "file": "src/proto_017_PtNairob/lib_protocol/test/integration/michelson/test_script_cache.ml",
    "title": "017-PtNairob: script cache (entries correctly list contracts in order)",
    "tags": [
      "alcotezt",
      "quick",
      "nairobi"
    ],
    "successful_runs": {
      "total_time": "53930",
      "count": "1"
    }
  },
  {
    "file": "src/proto_017_PtNairob/lib_protocol/test/integration/consensus/test_frozen_deposits.ml",
    "title": "017-PtNairob: frozen deposits (set deposits limit to 0%)",
    "tags": [
      "alcotezt",
      "quick",
      "nairobi"
    ],
    "successful_runs": {
      "total_time": "51207",
      "count": "1"
    }
  },
  {
    "file": "src/proto_017_PtNairob/lib_protocol/test/integration/consensus/test_double_preendorsement.ml",
    "title": "017-PtNairob: double preendorsement (ConstrMode: ko: malformed_double_preendorsement_denunciation_different_rounds)",
    "tags": [
      "alcotezt",
      "quick",
      "nairobi"
    ],
    "successful_runs": {
      "total_time": "16102",
      "count": "1"
    }
  },
  {
    "file": "src/proto_017_PtNairob/lib_protocol/test/integration/consensus/test_delegation.ml",
    "title": "017-PtNairob: delegation (unregistered delegate key (init with delegation, small fee))",
    "tags": [
      "alcotezt",
      "quick",
      "nairobi"
    ],
    "successful_runs": {
      "total_time": "13020",
      "count": "1"
    }
  },
  {
    "file": "src/proto_017_PtNairob/lib_protocol/test/integration/consensus/test_consensus_key.ml",
    "title": "017-PtNairob: consensus key (tz4 consensus key)",
    "tags": [
      "alcotezt",
      "quick",
      "nairobi"
    ],
    "successful_runs": {
      "total_time": "10870",
      "count": "1"
    }
  },
  {
    "file": "src/proto_017_PtNairob/lib_dac_plugin/test/test_dac_plugin_registration.ml",
    "title": "017-PtNairob: [Unit] Dac_plugin_registration.ml (Json encoded hash string should be a hex string)",
    "tags": [
      "alcotezt",
      "quick",
      "nairobi"
    ],
    "successful_runs": {
      "total_time": "211",
      "count": "1"
    }
  },
  {
    "file": "src/proto_017_PtNairob/lib_client/test/test_michelson_v1_macros.ml",
    "title": "017-PtNairob: micheline v1 macros (assert left expansion)",
    "tags": [
      "alcotezt",
      "quick",
      "nairobi"
    ],
    "successful_runs": {
      "total_time": "384",
      "count": "1"
    }
  },
  {
    "file": "src/lib_store/unix/test/test_cemented_store.ml",
    "title": "tezos-store: cemented store (retrieve cemented metadata)",
    "tags": [
      "alcotezt",
      "quick"
    ],
    "successful_runs": {
      "total_time": "32438",
      "count": "1"
    }
  },
  {
    "file": "src/lib_store/unix/test/test.ml",
    "title": "tezos-store: snapshots (export => import with 77 initial blocks from Full mode + 1 extra cycles to full (exported block at level 24) using directory format)",
    "tags": [
      "alcotezt",
      "quick"
    ],
    "successful_runs": {
      "total_time": "755523",
      "count": "1"
    }
  },
  {
    "file": "src/lib_store/unix/test/test.ml",
    "title": "tezos-store: history_mode_switch (switching from Rolling mode + 5 extra cycles to Rolling mode + 5 extra cycles with 72 blocks baked and cycle length 8)",
    "tags": [
      "alcotezt",
      "quick"
    ],
    "successful_runs": {
      "total_time": "635514",
      "count": "1"
    }
  },
  {
    "file": "src/lib_shell/test/test_synchronisation_heuristic.ml",
    "title": "tezos-shell: synchronisation heuristic sync (Threshold is one, update in the present)",
    "tags": [
      "alcotezt",
      "quick"
    ],
    "successful_runs": {
      "total_time": "530",
      "count": "1"
    }
  },
  {
    "file": "src/lib_scoru_wasm/test/test_wasm_pvm.ml",
    "title": "test lib scoru wasm: WASM PVM (Test unreachable kernel (in one go) (2.0.0-r4))",
    "tags": [
      "alcotezt",
      "quick"
    ],
    "successful_runs": {
      "total_time": "107547",
      "count": "1"
    }
  },
  {
    "file": "src/lib_scoru_wasm/test/test_wasm_pvm.ml",
    "title": "test lib scoru wasm: WASM PVM (Test rebuild snapshotable state (2.0.0-r4))",
    "tags": [
      "alcotezt",
      "quick"
    ],
    "successful_runs": {
      "total_time": "4545",
      "count": "1"
    }
  },
  {
    "file": "src/lib_scoru_wasm/test/test_wasm_pvm.ml",
    "title": "test lib scoru wasm: WASM PVM (Test bulk no-ops function properly (2.0.0-r4))",
    "tags": [
      "alcotezt",
      "quick"
    ],
    "successful_runs": {
      "total_time": "376858",
      "count": "1"
    }
  },
  {
    "file": "src/lib_scoru_wasm/test/test_protocol_migration.ml",
    "title": "test lib scoru wasm: Protocol migration (protocol migration message handling by the WASM PVM (Oxford))",
    "tags": [
      "alcotezt",
      "quick"
    ],
    "successful_runs": {
      "total_time": "7018",
      "count": "1"
    }
  },
  {
    "file": "src/lib_scoru_wasm/test/test_init.ml",
    "title": "test lib scoru wasm: Module Initialisation (32 bits float types are forbidden (2.0.0-r1))",
    "tags": [
      "alcotezt",
      "quick"
    ],
    "successful_runs": {
      "total_time": "1192",
      "count": "1"
    }
  },
  {
    "file": "src/lib_scoru_wasm/test/test_hash_consistency.ml",
    "title": "test lib scoru wasm: Hash correspondence (Executions correspondence (ticks 0 to 1,000) (2.0.0))",
    "tags": [
      "alcotezt",
      "quick"
    ],
    "successful_runs": {
      "total_time": "9131358",
      "count": "1"
    }
  },
  {
    "file": "src/lib_scoru_wasm/test/test_durable_storage.ml",
    "title": "test lib scoru wasm: Durable storage (store_get_hash (2.0.0))",
    "tags": [
      "alcotezt",
      "quick"
    ],
    "successful_runs": {
      "total_time": "184",
      "count": "1"
    }
  },
  {
    "file": "src/lib_scoru_wasm/test/test_debug.ml",
    "title": "test lib scoru wasm: Debug (debug during init (2.0.0))",
    "tags": [
      "alcotezt",
      "quick"
    ],
    "successful_runs": {
      "total_time": "390",
      "count": "1"
    }
  },
  {
    "file": "src/lib_scoru_wasm/regressions/tezos_scoru_wasm_regressions.ml",
    "title": "kernel link_store_exists run (hash, v3)",
    "tags": [
      "regression",
      "wasm_2_0_0",
      "link_store_exists",
      "hash",
      "v3"
    ],
    "successful_runs": {
      "total_time": "676725",
      "count": "1"
    }
  },
  {
    "file": "src/lib_scoru_wasm/fast/test/test_fast.ml",
    "title": "test lib scoru-wasm-fast: Fast Execution (compute_step_many pauses at snapshot (2.0.0-r4))",
    "tags": [
      "alcotezt",
      "quick"
    ],
    "successful_runs": {
      "total_time": "17035",
      "count": "1"
    }
  },
  {
    "file": "src/lib_sapling/test/test_keys.ml",
    "title": "sapling: keys (zip32)",
    "tags": [
      "alcotezt",
      "quick"
    ],
    "successful_runs": {
      "total_time": "1724",
      "count": "1"
    }
  },
  {
    "file": "src/lib_requester/test/test_requester.ml",
    "title": "tezos-requester: all (test watch: simple)",
    "tags": [
      "alcotezt",
      "quick"
    ],
    "successful_runs": {
      "total_time": "256",
      "count": "1"
    }
  },
  {
    "file": "src/lib_polynomial/test/test_with_finite_field.ml",
    "title": "Polynomials with F379 and some random prime fields: Dense polynomial coefficients with degree for prime field 802742453 (test vectors)",
    "tags": [
      "alcotezt",
      "quick"
    ],
    "successful_runs": {
      "total_time": "180",
      "count": "1"
    }
  },
  {
    "file": "src/lib_polynomial/test/test_with_finite_field.ml",
    "title": "Polynomials with F379 and some random prime fields: Tests on degrees, field order = 209015887 (degree of constants is one)",
    "tags": [
      "alcotezt",
      "quick"
    ],
    "successful_runs": {
      "total_time": "146",
      "count": "1"
    }
  },
  {
    "file": "src/lib_polynomial/test/test_with_finite_field.ml",
    "title": "Polynomials with F379 and some random prime fields: Polynomial multiplication FFT for prime field 52435875175126190479447740508185965837690552500527637822603658699938581184513 (Compare FFT version of polynomial multiplication against normal polynomial multiplication)",
    "tags": [
      "alcotezt",
      "quick"
    ],
    "successful_runs": {
      "total_time": "1780",
      "count": "1"
    }
  },
  {
    "file": "src/lib_polynomial/test/test_with_finite_field.ml",
    "title": "Polynomials with F379 and some random prime fields: Test evaluation, field order = 57896044618658097711785492504343953926634992332820282019728792003956564819949 (evaluation at any point of a random constant polynomial)",
    "tags": [
      "alcotezt",
      "quick"
    ],
    "successful_runs": {
      "total_time": "308",
      "count": "1"
    }
  },
  {
    "file": "src/lib_mec/test/test_vesta_projective.ml",
    "title": "Vesta projective coordinates: Group properties (additive_associativity)",
    "tags": [
      "alcotezt",
      "quick"
    ],
    "successful_runs": {
      "total_time": "38312",
      "count": "1"
    }
  },
  {
    "file": "src/lib_mec/test/test_vesta_affine.ml",
    "title": "Vesta affine coordinates: equality (random_same_objects)",
    "tags": [
      "alcotezt",
      "quick"
    ],
    "successful_runs": {
      "total_time": "11735",
      "count": "1"
    }
  },
  {
    "file": "src/lib_mec/test/test_tweedledum_projective.ml",
    "title": "Tweedledum projective coordinates: value generation (addition generates a valid point)",
    "tags": [
      "alcotezt",
      "quick"
    ],
    "successful_runs": {
      "total_time": "25590",
      "count": "1"
    }
  },
  {
    "file": "src/lib_mec/test/test_tweedledum_jacobian.ml",
    "title": "Tweedledum jacobian coordinates: Group properties (multiply_by_one_does_nothing)",
    "tags": [
      "alcotezt",
      "quick"
    ],
    "successful_runs": {
      "total_time": "12801",
      "count": "1"
    }
  },
  {
    "file": "src/lib_mec/test/test_tweedledum_affine.ml",
    "title": "Tweedledum affine coordinates: Compressed representation (of_compressed_bytes_opt recovers correct point from uncompressed representation)",
    "tags": [
      "alcotezt",
      "quick"
    ],
    "successful_runs": {
      "total_time": "23917",
      "count": "1"
    }
  },
  {
    "file": "src/lib_mec/test/test_tweedledee_jacobian.ml",
    "title": "Tweedledee jacobian coordinates: value generation (double generates a valid point)",
    "tags": [
      "alcotezt",
      "quick"
    ],
    "successful_runs": {
      "total_time": "13961",
      "count": "1"
    }
  },
  {
    "file": "src/lib_mec/test/test_tweedledee_affine.ml",
    "title": "Tweedledee affine coordinates: Group properties (opposite_existential_property)",
    "tags": [
      "alcotezt",
      "quick"
    ],
    "successful_runs": {
      "total_time": "12996",
      "count": "1"
    }
  },
  {
    "file": "src/lib_mec/test/test_secp256r1_jacobian.ml",
    "title": "secp256r1 jacobian coordinates: value generation (double generates a valid point)",
    "tags": [
      "alcotezt",
      "quick"
    ],
    "successful_runs": {
      "total_time": "4800",
      "count": "1"
    }
  },
  {
    "file": "src/lib_mec/test/test_secp256r1_affine.ml",
    "title": "secp256r1 affine coordinates: Group properties (opposite_existential_property)",
    "tags": [
      "alcotezt",
      "quick"
    ],
    "successful_runs": {
      "total_time": "3838",
      "count": "1"
    }
  },
  {
    "file": "src/lib_mec/test/test_secp256k1_projective.ml",
    "title": "secp256k1 projective coordinates: Group properties (additive_associativity_with_scalar)",
    "tags": [
      "alcotezt",
      "quick"
    ],
    "successful_runs": {
      "total_time": "407759",
      "count": "1"
    }
  },
  {
    "file": "src/lib_mec/test/test_secp256k1_affine.ml",
    "title": "secp256k1 affine coordinates: equality (zero)",
    "tags": [
      "alcotezt",
      "quick"
    ],
    "successful_runs": {
      "total_time": "169",
      "count": "1"
    }
  },
  {
    "file": "src/lib_mec/test/test_pallas_projective.ml",
    "title": "Pallas projective coordinates: value generation (random)",
    "tags": [
      "alcotezt",
      "quick"
    ],
    "successful_runs": {
      "total_time": "12414",
      "count": "1"
    }
  },
  {
    "file": "src/lib_mec/test/test_pallas_jacobian.ml",
    "title": "Pallas jacobian coordinates: Group properties (zero_scalar_nullifier_random)",
    "tags": [
      "alcotezt",
      "quick"
    ],
    "successful_runs": {
      "total_time": "12458",
      "count": "1"
    }
  },
  {
    "file": "src/lib_mec/test/test_pallas_affine.ml",
    "title": "Pallas affine coordinates: Group properties (distributivity)",
    "tags": [
      "alcotezt",
      "quick"
    ],
    "successful_runs": {
      "total_time": "862176",
      "count": "1"
    }
  },
  {
    "file": "src/lib_mec/test/test_orchard.ml",
    "title": "Orchard: No padding (Inputs of length 2)",
    "tags": [
      "alcotezt",
      "quick"
    ],
    "successful_runs": {
      "total_time": "4626",
      "count": "1"
    }
  },
  {
    "file": "src/lib_mec/test/test_jubjub_weierstrass.ml",
    "title": "Jubjub - Weierstrass - Affine coordinates: Group properties (opposite_of_opposite_of_zero_is_zero)",
    "tags": [
      "alcotezt",
      "quick"
    ],
    "successful_runs": {
      "total_time": "120",
      "count": "1"
    }
  },
  {
    "file": "src/lib_mec/test/test_jubjub.ml",
    "title": "Jubjub: Tests random (test random coordinates do not give a point on the curve)",
    "tags": [
      "alcotezt",
      "quick"
    ],
    "successful_runs": {
      "total_time": "835",
      "count": "1"
    }
  },
  {
    "file": "src/lib_mec/test/test_iso_pallas_affine.ml",
    "title": "Iso Pallas affine form: Group properties (opposite_of_opposite_of_one_is_one)",
    "tags": [
      "alcotezt",
      "quick"
    ],
    "successful_runs": {
      "total_time": "140",
      "count": "1"
    }
  },
  {
    "file": "src/lib_mec/test/test_curve448.ml",
    "title": "Curve448: Group properties (opposite_of_scalar_is_opposite_of_ec)",
    "tags": [
      "alcotezt",
      "quick"
    ],
    "successful_runs": {
      "total_time": "1208855",
      "count": "1"
    }
  },
  {
    "file": "src/lib_mec/test/test_curve25519_montgomery.ml",
    "title": "Curve25519: Group properties (check_bytes_random_double)",
    "tags": [
      "alcotezt",
      "quick"
    ],
    "successful_runs": {
      "total_time": "11102",
      "count": "1"
    }
  },
  {
    "file": "src/lib_mec/test/test_bn254_projective.ml",
    "title": "BN254 projective form: Group properties (additive_associativity_with_scalar)",
    "tags": [
      "alcotezt",
      "quick"
    ],
    "successful_runs": {
      "total_time": "430146",
      "count": "1"
    }
  },
  {
    "file": "src/lib_mec/test/test_bn254_affine.ml",
    "title": "BN254 affine form: equality (zero)",
    "tags": [
      "alcotezt",
      "quick"
    ],
    "successful_runs": {
      "total_time": "163",
      "count": "1"
    }
  },
  {
    "file": "src/lib_mec/test/test_bls12_381_projective.ml",
    "title": "BLS12-381 G1 projective form: Group properties (opposite_of_opposite_of_zero_is_zero)",
    "tags": [
      "alcotezt",
      "quick"
    ],
    "successful_runs": {
      "total_time": "139",
      "count": "1"
    }
  },
  {
    "file": "src/lib_mec/test/test_bls12_381_affine.ml",
    "title": "BLS12-381 G1 affine form: Group properties (check_bytes_one)",
    "tags": [
      "alcotezt",
      "quick"
    ],
    "successful_runs": {
      "total_time": "2119",
      "count": "1"
    }
  },
  {
    "file": "src/lib_mec/test/test_bandersnatch_affine_weierstrass.ml",
    "title": "Bandersnatch Weierstrass form, affine coordinates: Group properties (additive_associativity)",
    "tags": [
      "alcotezt",
      "quick"
    ],
    "successful_runs": {
      "total_time": "46072",
      "count": "1"
    }
  },
  {
    "file": "src/lib_mec/test/test_bandersnatch_affine_edwards.ml",
    "title": "Bandersnatch Edwards form, affine coordinates: value generation (double_with_random)",
    "tags": [
      "alcotezt",
      "quick"
    ],
    "successful_runs": {
      "total_time": "15397",
      "count": "1"
    }
  },
  {
    "file": "src/lib_mec/test/test_babyjubjub_reduced.ml",
    "title": "BabyJubjub reduced twisted edwards form: Group properties (opposite_of_opposite)",
    "tags": [
      "alcotezt",
      "quick"
    ],
    "successful_runs": {
      "total_time": "14189",
      "count": "1"
    }
  },
  {
    "file": "src/lib_mec/test/test_babyjubjub.ml",
    "title": "BabyJubjub: Group properties of Edwards curve (unsafe_from_coordinates do not check the point is on the curve)",
    "tags": [
      "alcotezt",
      "quick"
    ],
    "successful_runs": {
      "total_time": "108",
      "count": "1"
    }
  },
  {
    "file": "src/lib_lwt_result_stdlib/test/test_list_basic_lwt.ml",
    "title": "list-basic-lwt: concat_map_* (concat_map)",
    "tags": [
      "alcotezt",
      "quick"
    ],
    "successful_runs": {
      "total_time": "143",
      "count": "1"
    }
  },
  {
    "file": "src/lib_hacl/test/test.ml",
    "title": "hacl-test: tests (Testing Keccak)",
    "tags": [
      "alcotezt",
      "quick"
    ],
    "successful_runs": {
      "total_time": "129",
      "count": "1"
    }
  },
  {
    "file": "src/lib_crypto/test/test_run.ml",
    "title": "tezos-crypto: timelock (raw scenario - short)",
    "tags": [
      "alcotezt",
      "quick"
    ],
    "successful_runs": {
      "total_time": "2832",
      "count": "1"
    }
  },
  {
    "file": "src/lib_context/test/test_context.ml",
    "title": "tezos-context: context (memory:list)",
    "tags": [
      "alcotezt",
      "quick"
    ],
    "successful_runs": {
      "total_time": "538",
      "count": "1"
    }
  },
  {
    "file": "src/lib_clic/test/test_clic.ml",
    "title": "Tezos_clic: auto-completion-parameters (non-terminal-seq: fails when given an empty suffix)",
    "tags": [
      "alcotezt",
      "quick"
    ],
    "successful_runs": {
      "total_time": "133",
      "count": "1"
    }
  },
  {
    "file": "src/lib_bls12_381_signature/test/test_signature.ml",
    "title": "BLS Signature: MinPk Auxiliary functions (signature_of_bytes_exn accepts points in the subgroup and in compressed form)",
    "tags": [
      "alcotezt",
      "quick"
    ],
    "successful_runs": {
      "total_time": "10140",
      "count": "1"
    }
  },
  {
    "file": "src/lib_bls12_381_signature/test/test_signature.ml",
    "title": "BLS Signature: MinSig Auxiliary functions (pk_of_bytes_opt does verify the input represents a point in the subgroup)",
    "tags": [
      "alcotezt",
      "quick"
    ],
    "successful_runs": {
      "total_time": "1084",
      "count": "1"
    }
  },
  {
    "file": "src/lib_bls12_381_polynomial/test/test_main.ml",
    "title": "PlonK: Polynomial_c (big_vectors_fft)",
    "tags": [
      "alcotezt",
      "quick"
    ],
    "successful_runs": {
      "total_time": "8522",
      "count": "1"
    }
  },
  {
    "file": "src/lib_bls12_381/test/test_g2.ml",
    "title": "G2: value generation (random)",
    "tags": [
      "alcotezt",
      "quick"
    ],
    "successful_runs": {
      "total_time": "87295",
      "count": "1"
    }
  },
  {
    "file": "src/lib_bls12_381/test/test_g2.ml",
    "title": "G2: Bulk operations (pippenger)",
    "tags": [
      "alcotezt",
      "quick"
    ],
    "successful_runs": {
      "total_time": "34498",
      "count": "1"
    }
  },
  {
    "file": "src/lib_bls12_381/test/test_g1.ml",
    "title": "G1: Curve properties (check_bytes_random_sum)",
    "tags": [
      "alcotezt",
      "quick"
    ],
    "successful_runs": {
      "total_time": "32809",
      "count": "1"
    }
  },
  {
    "file": "src/lib_bls12_381/test/test_fr.ml",
    "title": "Fr: Test comparison operators ((=) operator on zero)",
    "tags": [
      "alcotezt",
      "quick"
    ],
    "successful_runs": {
      "total_time": "128",
      "count": "1"
    }
  },
  {
    "file": "src/lib_bls12_381/test/test_fr.ml",
    "title": "Fr: Equality for field of order 524358751751261904794477405081859658376905525005276378226036586999385811 (random_same_objects)",
    "tags": [
      "alcotezt",
      "quick"
    ],
    "successful_runs": {
      "total_time": "179",
      "count": "1"
    }
  },
  {
    "file": "src/lib_benchmark/test/test_costlang.ml",
    "title": "tezos-benchmark: costlang (arg_names_1)",
    "tags": [
      "alcotezt",
      "quick"
    ],
    "successful_runs": {
      "total_time": "145",
      "count": "1"
    }
  },
  {
    "file": "src/lib_base/test/test_bounded.ml",
    "title": "Bounded: Int32 (Uint8.bad instantiation upper value)",
    "tags": [
      "alcotezt",
      "quick"
    ],
    "successful_runs": {
      "total_time": "147",
      "count": "1"
    }
  },
  {
    "file": "etherlink/tezt/tests/evm_rollup.ml",
    "title": "Alpha: Block size is greater than zero (proxy)",
    "tags": [
      "admin_client",
      "alpha",
      "block",
      "client",
      "evm",
      "evm_kernel",
      "evm_node",
      "node",
      "proxy",
      "size",
      "smart_rollup_installer",
      "smart_rollup_node"
    ],
    "successful_runs": {
      "total_time": "5941119",
      "count": "1"
    }
  },
  {
    "file": "etherlink/tezt/tests/evm_rollup.ml",
    "title": "Alpha: Ensure EVM node returns appropriate hash for any given transactions. (proxy)",
    "tags": [
      "admin_client",
      "alpha",
      "client",
      "evm",
      "evm_kernel",
      "evm_node",
      "node",
      "proxy",
      "smart_rollup_installer",
      "smart_rollup_node",
      "tx_hash"
    ],
    "successful_runs": {
      "total_time": "4942847",
      "count": "1"
    }
  },
  {
    "file": "tezt/tests/snoop_protocol_codegen.ml",
    "title": "snoop protocol codegen",
    "tags": [
      "codegen",
      "protocol",
      "snoop"
    ],
    "successful_runs": {
      "total_time": "1135267",
      "count": "1"
    }
  },
  {
    "file": "tezt/tests/sc_rollup.ml",
    "title": "Alpha: wasm_2_0_0 - maintenance of inbox in the rollup node (basic)",
    "tags": [
      "admin_client",
      "alpha",
      "client",
      "etherlink",
      "inbox",
      "node",
      "sc_rollup",
      "smart_rollup_node",
      "wasm_2_0_0"
    ],
    "successful_runs": {
      "total_time": "5226845",
      "count": "1"
    }
  },
  {
    "file": "tezt/tests/riscv_sandbox.ml",
    "title": "Run inline asm tests",
    "tags": [
      "regression",
      "inline_asm",
      "riscv_sandbox",
      "riscv",
      "sandbox"
    ],
    "successful_runs": {
      "total_time": "10096",
      "count": "1"
    }
  },
  {
    "file": "tezt/tests/protocol_migration.ml",
    "title": "protocol migration at level 16",
    "tags": [
      "admin_client",
      "client",
      "migration",
      "node",
      "protocol",
      "sandbox"
    ],
    "successful_runs": {
      "total_time": "20322618",
      "count": "1"
    }
  },
  {
    "file": "tezt/tests/sc_rollup_migration.ml",
    "title": "Nairobi->Oxford: wasm_2_0_0 - testing to send inbox operation post migration.",
    "tags": [
      "admin_client",
      "client",
      "etherlink",
      "external",
      "inbox",
      "internal",
      "message",
      "migration",
      "nairobi",
      "node",
      "oxford",
      "wasm_2_0_0"
    ],
    "successful_runs": {
      "total_time": "10306289",
      "count": "1"
    }
  },
  {
    "file": "tezt/tests/baker_operations_cli_options.ml",
    "title": "Nairobi: Ignore node mempool",
    "tags": [
      "admin_client",
      "client",
      "ignore",
      "layer1",
      "mempool",
      "nairobi",
      "node"
    ],
    "successful_runs": {
      "total_time": "5729223",
      "count": "1"
    }
  },
  {
    "file": "tezt/tests/bootstrap.ml",
    "title": "Alpha: node synchronization (rolling_0 / full)",
    "tags": [
      "activate",
      "admin_client",
      "alpha",
      "bake",
      "bootstrap",
      "client",
      "node",
      "primary_rolling_0",
      "secondary_full",
      "sync"
    ],
    "successful_runs": {
      "total_time": "15850102",
      "count": "1"
    }
  },
  {
    "file": "tezt/tests/client_fa12.ml",
    "title": "Oxford: test fa1.2, get total_supply offchain [mini_scenarios/fa12_reference]",
    "tags": [
      "admin_client",
      "client",
      "fa12",
      "fa12_reference",
      "oxford"
    ],
    "successful_runs": {
      "total_time": "1780259",
      "count": "1"
    }
  },
  {
    "file": "tezt/tests/client_run_view.ml",
    "title": "Oxford: Run view on non existing contract",
    "tags": [
      "admin_client",
      "client",
      "michelson",
      "oxford",
      "view"
    ],
    "successful_runs": {
      "total_time": "674327",
      "count": "1"
    }
  },
  {
    "file": "tezt/tests/contract_hash_fun.ml",
    "title": "Nairobi: Test contract hash function: sha3",
    "tags": [
      "admin_client",
      "client",
      "contract",
      "crypto",
      "hash",
      "michelson",
      "nairobi",
      "sha3"
    ],
    "successful_runs": {
      "total_time": "11229652",
      "count": "1"
    }
  },
  {
    "file": "tezt/tests/contract_onchain_opcodes.ml",
    "title": "Nairobi: Contract onchain opcodes: test_contract_fails",
    "tags": [
      "regression",
      "admin_client",
      "client",
      "contract",
      "nairobi",
      "onchain",
      "opcodes"
    ],
    "successful_runs": {
      "total_time": "1068435",
      "count": "1"
    }
  },
  {
    "file": "tezt/tests/contract_opcodes.ml",
    "title": "Oxford: opcodes [list_map_block--storage907453363--input648737279]",
    "tags": [
      "regression",
      "admin_client",
      "client",
      "michelson",
      "oxford"
    ],
    "successful_runs": {
      "total_time": "325190",
      "count": "1"
    }
  },
  {
    "file": "tezt/tests/contract_opcodes.ml",
    "title": "Alpha: opcodes [loop_left--storage528921618--input851203613]",
    "tags": [
      "regression",
      "admin_client",
      "alpha",
      "client",
      "michelson"
    ],
    "successful_runs": {
      "total_time": "337454",
      "count": "1"
    }
  },
  {
    "file": "tezt/tests/contract_opcodes.ml",
    "title": "Alpha: opcodes [str_id--storage921624073--input93477117]",
    "tags": [
      "regression",
      "admin_client",
      "alpha",
      "client",
      "michelson"
    ],
    "successful_runs": {
      "total_time": "349735",
      "count": "1"
    }
  },
  {
    "file": "tezt/tests/contract_opcodes.ml",
    "title": "Oxford: opcodes [slice--storage364922380--input919180079]",
    "tags": [
      "regression",
      "admin_client",
      "client",
      "michelson",
      "oxford"
    ],
    "successful_runs": {
      "total_time": "325746",
      "count": "1"
    }
  },
  {
    "file": "tezt/tests/contract_opcodes.ml",
    "title": "Alpha: opcodes [pair_id--storage921624073--input106930123]",
    "tags": [
      "regression",
      "admin_client",
      "alpha",
      "client",
      "michelson"
    ],
    "successful_runs": {
      "total_time": "310494",
      "count": "1"
    }
  },
  {
    "file": "tezt/tests/contract_opcodes.ml",
    "title": "Oxford: opcodes [or_binary--storage921624073--input673240563]",
    "tags": [
      "regression",
      "admin_client",
      "client",
      "michelson",
      "oxford"
    ],
    "successful_runs": {
      "total_time": "308315",
      "count": "1"
    }
  },
  {
    "file": "tezt/tests/contract_opcodes.ml",
    "title": "Nairobi: opcodes [xor--storage921624073--input1073176155]",
    "tags": [
      "regression",
      "admin_client",
      "client",
      "michelson",
      "nairobi"
    ],
    "successful_runs": {
      "total_time": "310466",
      "count": "1"
    }
  },
  {
    "file": "tezt/tests/contract_opcodes.ml",
    "title": "Nairobi: opcodes [map_mem_nat--storage690637660--input453441034]",
    "tags": [
      "regression",
      "admin_client",
      "client",
      "michelson",
      "nairobi"
    ],
    "successful_runs": {
      "total_time": "332448",
      "count": "1"
    }
  },
  {
    "file": "tezt/tests/contract_opcodes.ml",
    "title": "Nairobi: opcodes [get_and_update_map--storage496578814--input329240220]",
    "tags": [
      "regression",
      "admin_client",
      "client",
      "michelson",
      "nairobi"
    ],
    "successful_runs": {
      "total_time": "339348",
      "count": "1"
    }
  },
  {
    "file": "tezt/tests/contract_opcodes.ml",
    "title": "Nairobi: opcodes [balance--storage492856247--input125992234]",
    "tags": [
      "regression",
      "admin_client",
      "client",
      "michelson",
      "nairobi"
    ],
    "successful_runs": {
      "total_time": "324235",
      "count": "1"
    }
  },
  {
    "file": "tezt/tests/contract_opcodes.ml",
    "title": "Oxford: opcodes [add--storage125992234--input125992234]",
    "tags": [
      "regression",
      "admin_client",
      "client",
      "michelson",
      "oxford"
    ],
    "successful_runs": {
      "total_time": "318636",
      "count": "1"
    }
  },
  {
    "file": "tezt/tests/contract_opcodes.ml",
    "title": "Alpha: opcodes [ediv--storage994417987--input247451205]",
    "tags": [
      "regression",
      "admin_client",
      "alpha",
      "client",
      "michelson"
    ],
    "successful_runs": {
      "total_time": "336032",
      "count": "1"
    }
  },
  {
    "file": "tezt/tests/contract_opcodes.ml",
    "title": "Oxford: opcodes [dipn--storage680650890--input529388602]",
    "tags": [
      "regression",
      "admin_client",
      "client",
      "michelson",
      "oxford"
    ],
    "successful_runs": {
      "total_time": "309692",
      "count": "1"
    }
  },
  {
    "file": "tezt/tests/contract_opcodes.ml",
    "title": "Nairobi: opcodes [chain_id_store--storage109160754--input125992234]",
    "tags": [
      "regression",
      "admin_client",
      "client",
      "michelson",
      "nairobi"
    ],
    "successful_runs": {
      "total_time": "321995",
      "count": "1"
    }
  },
  {
    "file": "tezt/tests/contract_opcodes.ml",
    "title": "Nairobi: opcodes [self_with_default_entrypoint--storage125992234--input125992234]",
    "tags": [
      "regression",
      "admin_client",
      "client",
      "michelson",
      "nairobi"
    ],
    "successful_runs": {
      "total_time": "313071",
      "count": "1"
    }
  },
  {
    "file": "tezt/tests/contract_opcodes.ml",
    "title": "Alpha: opcodes [bls12_381_z_fr_int--storage994282947--input1055524890]",
    "tags": [
      "regression",
      "admin_client",
      "alpha",
      "client",
      "michelson"
    ],
    "successful_runs": {
      "total_time": "326915",
      "count": "1"
    }
  },
  {
    "file": "tezt/tests/contract_opcodes.ml",
    "title": "Oxford: opcodes [bls12_381_z_fr_int--storage287336412--input1019409032]",
    "tags": [
      "regression",
      "admin_client",
      "client",
      "michelson",
      "oxford"
    ],
    "successful_runs": {
      "total_time": "338691",
      "count": "1"
    }
  },
  {
    "file": "tezt/tests/contract_opcodes.ml",
    "title": "Alpha: opcodes [add_bls12_381_fr--storage921624073--input530006774]",
    "tags": [
      "regression",
      "admin_client",
      "alpha",
      "client",
      "michelson"
    ],
    "successful_runs": {
      "total_time": "335093",
      "count": "1"
    }
  },
  {
    "file": "tezt/tests/contract_macros.ml",
    "title": "Nairobi: macros [build_list--storage457300675--input654274102]",
    "tags": [
      "admin_client",
      "client",
      "macros",
      "michelson",
      "nairobi"
    ],
    "successful_runs": {
      "total_time": "307976",
      "count": "1"
    }
  },
  {
    "file": "tezt/tests/contract_macros.ml",
    "title": "Oxford: macro failure [assert_gt--storage125992234--input280547028]",
    "tags": [
      "admin_client",
      "client",
      "macros",
      "michelson",
      "oxford"
    ],
    "successful_runs": {
      "total_time": "314273",
      "count": "1"
    }
  },
  {
    "file": "tezt/tests/contract_macros.ml",
    "title": "Oxford: Macro expansion: macros/assert_cmpgt",
    "tags": [
      "regression",
      "admin_client",
      "client",
      "macros",
      "michelson",
      "oxford"
    ],
    "successful_runs": {
      "total_time": "315049",
      "count": "1"
    }
  },
  {
    "file": "tezt/tests/deposits_limit.ml",
    "title": "Alpha: unset deposits limit",
    "tags": [
      "regression",
      "admin_client",
      "alpha",
      "client",
      "deposits_limit",
      "node"
    ],
    "successful_runs": {
      "total_time": "2767387",
      "count": "1"
    }
  },
  {
    "file": "tezt/tests/encoding.ml",
    "title": "Alpha: protocol encoding regression test: fitness",
    "tags": [
      "regression",
      "alpha",
      "codec",
      "encoding",
      "fitness",
      "protocol"
    ],
    "successful_runs": {
      "total_time": "857144",
      "count": "1"
    }
  },
  {
    "file": "tezt/tests/encoding.ml",
    "title": "Oxford: protocol encoding regression test: vote.listings",
    "tags": [
      "regression",
      "codec",
      "encoding",
      "listings",
      "oxford",
      "protocol",
      "vote"
    ],
    "successful_runs": {
      "total_time": "650004",
      "count": "1"
    }
  },
  {
    "file": "tezt/tests/gas_bound.ml",
    "title": "Alpha: first explosion big type",
    "tags": [
      "admin_client",
      "alpha",
      "client",
      "gas_bound",
      "michelson"
    ],
    "successful_runs": {
      "total_time": "647155",
      "count": "1"
    }
  },
  {
    "file": "tezt/tests/gas_bound.ml",
    "title": "Alpha: second explosion",
    "tags": [
      "admin_client",
      "alpha",
      "client",
      "gas_bound",
      "michelson"
    ],
    "successful_runs": {
      "total_time": "835400",
      "count": "1"
    }
  },
  {
    "file": "tezt/tests/global_constants.ml",
    "title": "Alpha: Originate a large, flat contract",
    "tags": [
      "admin_client",
      "alpha",
      "client",
      "global_constant",
      "node"
    ],
    "successful_runs": {
      "total_time": "3473850",
      "count": "1"
    }
  },
  {
    "file": "tezt/tests/hash_data.ml",
    "title": "Alpha: hash data ... of type ... (ugly)",
    "tags": [
      "admin_client",
      "alpha",
      "client",
      "data",
      "hash",
      "mockup"
    ],
    "successful_runs": {
      "total_time": "1301720",
      "count": "1"
    }
  },
  {
    "file": "tezt/tests/manager_operations.ml",
    "title": "Oxford: Contract's initial storage illtyped",
    "tags": [
      "admin_client",
      "client",
      "codec",
      "illtyped",
      "node",
      "origination",
      "oxford",
      "precheck",
      "typing"
    ],
    "successful_runs": {
      "total_time": "5364577",
      "count": "1"
    }
  },
  {
    "file": "tezt/tests/manager_operations.ml",
    "title": "Alpha: Smart contract call with illtyped argument",
    "tags": [
      "admin_client",
      "alpha",
      "call",
      "client",
      "codec",
      "contract",
      "node",
      "simple_contract_calls",
      "smart"
    ],
    "successful_runs": {
      "total_time": "6090710",
      "count": "1"
    }
  },
  {
    "file": "tezt/tests/mockup.ml",
    "title": "Oxford: (Mockup) Originate Contract with Global Constant success",
    "tags": [
      "admin_client",
      "client",
      "global_constant",
      "mockup",
      "oxford"
    ],
    "successful_runs": {
      "total_time": "974032",
      "count": "1"
    }
  },
  {
    "file": "tezt/tests/multisig.ml",
    "title": "Nairobi: Multisig [by_address:false, legacy, sig_algs:p256,ed25519,None]",
    "tags": [
      "admin_client",
      "by_alias",
      "client",
      "legacy",
      "multisig",
      "nairobi"
    ],
    "successful_runs": {
      "total_time": "16873249",
      "count": "1"
    }
  },
  {
    "file": "tezt/tests/node_event_level.ml",
    "title": "Nairobi: event levels",
    "tags": [
      "admin_client",
      "client",
      "event",
      "nairobi",
      "node"
    ],
    "successful_runs": {
      "total_time": "3979765",
      "count": "1"
    }
  },
  {
    "file": "tezt/tests/proxy.ml",
    "title": "Nairobi: (Proxy) (/chains/main/blocks/head/helpers/attestation_rights) No useless RPC call",
    "tags": [
      "admin_client",
      "client",
      "get",
      "layer1",
      "nairobi",
      "node",
      "proxy",
      "rpc"
    ],
    "successful_runs": {
      "total_time": "2855998",
      "count": "1"
    }
  },
  {
    "file": "tezt/tests/RPC_test.ml",
    "title": "Oxford: (mode client) RPC regression tests: delegates",
    "tags": [
      "regression",
      "admin_client",
      "client",
      "delegates",
      "node",
      "oxford",
      "rpc"
    ],
    "successful_runs": {
      "total_time": "8524683",
      "count": "1"
    }
  },
  {
    "file": "tezt/tests/RPC_test.ml",
    "title": "Nairobi: (mode proxy) RPC tests: misc_shell",
    "tags": [
      "admin_client",
      "client",
      "misc_shell",
      "nairobi",
      "node",
      "proxy",
      "rpc"
    ],
    "successful_runs": {
      "total_time": "5707499",
      "count": "1"
    }
  },
  {
    "file": "tezt/tests/rpc_versioning_attestation.ml",
    "title": "Alpha: Parse raw double pre-consensus evidence operations",
    "tags": [
      "admin_client",
      "alpha",
      "client",
      "codec",
      "consensus",
      "double",
      "evidence",
      "layer1",
      "node",
      "operations",
      "parse",
      "pre",
      "raw",
      "rpc",
      "versioning"
    ],
    "successful_runs": {
      "total_time": "7478438",
      "count": "1"
    }
  },
  {
    "file": "tezt/tests/rpc_versioning_attestation.ml",
    "title": "Oxford: Block double consensus evidence operations",
    "tags": [
      "admin_client",
      "block",
      "client",
      "consensus",
      "double",
      "evidence",
      "layer1",
      "node",
      "operations",
      "oxford",
      "rpc",
      "versioning"
    ],
    "successful_runs": {
      "total_time": "11841205",
      "count": "1"
    }
  },
  {
    "file": "tezt/tests/run_script.ml",
    "title": "Alpha: Run script with extra_big_maps",
    "tags": [
      "admin_client",
      "alpha",
      "client",
      "michelson"
    ],
    "successful_runs": {
      "total_time": "704035",
      "count": "1"
    }
  },
  {
    "file": "tezt/tests/script_illtyped.ml",
    "title": "Nairobi: Test Ill Typecheck - comb0",
    "tags": [
      "admin_client",
      "client",
      "michelson",
      "nairobi",
      "script",
      "typechecking"
    ],
    "successful_runs": {
      "total_time": "697312",
      "count": "1"
    }
  },
  {
    "file": "tezt/tests/script_illtyped.ml",
    "title": "Oxford: Test Ill Typecheck - uncomb0",
    "tags": [
      "admin_client",
      "client",
      "michelson",
      "oxford",
      "script",
      "typechecking"
    ],
    "successful_runs": {
      "total_time": "677751",
      "count": "1"
    }
  },
  {
    "file": "tezt/tests/sc_rollup.ml",
    "title": "Nairobi: arith - refutation games winning strategies (inbox_proof_with_new_content)",
    "tags": [
      "regression",
      "admin_client",
      "arith",
      "client",
      "etherlink",
      "nairobi",
      "node",
      "refutation",
      "sc_rollup",
      "smart_rollup_node"
    ],
    "successful_runs": {
      "total_time": "62708984",
      "count": "1"
    }
  },
  {
    "file": "tezt/tests/sc_rollup.ml",
    "title": "Oxford: wasm_2_0_0 - refutation games winning strategies (inbox_proof_1)",
    "tags": [
      "regression",
      "admin_client",
      "client",
      "etherlink",
      "node",
      "oxford",
      "refutation",
      "sc_rollup",
      "smart_rollup_node",
      "wasm_2_0_0"
    ],
    "successful_runs": {
      "total_time": "31295046",
      "count": "1"
    }
  },
  {
    "file": "tezt/tests/sc_rollup.ml",
    "title": "Alpha: wasm_2_0_0 - output exec (0, entrypoint: %default, eager: 5, intern, no_parameters_ty)",
    "tags": [
      "admin_client",
      "alpha",
      "client",
      "codec",
      "default",
      "etherlink",
      "intern",
      "no_parameters_ty",
      "node",
      "outbox",
      "sc_rollup",
      "smart_rollup_node",
      "wasm_2_0_0"
    ],
    "successful_runs": {
      "total_time": "8165417",
      "count": "1"
    }
  },
  {
    "file": "tezt/tests/sc_rollup.ml",
    "title": "Oxford: arith - Non-whitelisted staker cannot publish a commitment",
    "tags": [
      "admin_client",
      "arith",
      "client",
      "etherlink",
      "node",
      "oxford",
      "sc_rollup",
      "whitelist"
    ],
    "successful_runs": {
      "total_time": "3969963",
      "count": "1"
    }
  },
  {
    "file": "tezt/tests/self_address_transfer.ml",
    "title": "Nairobi: Self address transfer",
    "tags": [
      "regression",
      "admin_client",
      "client",
      "michelson",
      "nairobi"
    ],
    "successful_runs": {
      "total_time": "1405198",
      "count": "1"
    }
  },
  {
    "file": "tezt/tests/stresstest_command.ml",
    "title": "Nairobi: stresstest explicit transfers argument",
    "tags": [
      "admin_client",
      "client",
      "isolated_node",
      "n_transfers",
      "nairobi",
      "node",
      "stresstest"
    ],
    "successful_runs": {
      "total_time": "7572923",
      "count": "1"
    }
  },
  {
    "file": "tezt/tests/tenderbake.ml",
    "title": "Oxford: Tenderbake manual bake null threshold",
    "tags": [
      "admin_client",
      "attest",
      "client",
      "low_level",
      "manual",
      "node",
      "oxford",
      "preattest",
      "propose",
      "tenderbake"
    ],
    "successful_runs": {
      "total_time": "4668454",
      "count": "1"
    }
  },
  {
    "file": "tezt/tests/testnet_dictator.ml",
    "title": "Nairobi: testnet dictator (mainnet, exploration)",
    "tags": [
      "admin_client",
      "amendment",
      "client",
      "exploration",
      "mainnet",
      "nairobi",
      "node"
    ],
    "successful_runs": {
      "total_time": "11466587",
      "count": "1"
    }
  },
  {
    "file": "tezt/tests/test_contract_bls12_381.ml",
    "title": "Alpha: Bls12_381 contract primitives, g1: mul",
    "tags": [
      "regression",
      "admin_client",
      "alpha",
      "bls12_381",
      "client",
      "contract",
      "crypto",
      "g1",
      "michelson",
      "mul"
    ],
    "successful_runs": {
      "total_time": "48833606",
      "count": "1"
    }
  },
  {
    "file": "tezt/tests/tickets.ml",
    "title": "Alpha: Create and remove tickets",
    "tags": [
      "regression",
      "admin_client",
      "alpha",
      "client",
      "michelson"
    ],
    "successful_runs": {
      "total_time": "2131062",
      "count": "1"
    }
  },
  {
    "file": "tezt/tests/tickets.ml",
    "title": "Oxford: Overdrafting ticket from implicit accounts must be rejected",
    "tags": [
      "regression",
      "admin_client",
      "client",
      "michelson",
      "oxford"
    ],
    "successful_runs": {
      "total_time": "2075862",
      "count": "1"
    }
  },
  {
    "file": "tezt/tests/views.ml",
    "title": "Oxford: balance after view - balance_after_view",
    "tags": [
      "admin_client",
      "client",
      "michelson",
      "oxford"
    ],
    "successful_runs": {
      "total_time": "1705411",
      "count": "1"
    }
  },
  {
    "file": "tezt/tests/views.ml",
    "title": "Alpha: Typecheck view - view_toplevel_lazy_storage_output",
    "tags": [
      "admin_client",
      "alpha",
      "client",
      "michelson"
    ],
    "successful_runs": {
      "total_time": "665899",
      "count": "1"
    }
  },
  {
    "file": "tezt/tests/tx_sc_rollup.ml",
    "title": "Alpha: wasm_2_0_0 - tx kernel should run e2e (kernel_e2e)",
    "tags": [
      "regression",
      "admin_client",
      "alpha",
      "client",
      "kernel",
      "kernel_e2e",
      "node",
      "smart_rollup_installer",
      "smart_rollup_node",
      "tx_kernel",
      "tx_sc_rollup",
      "wasm",
      "wasm_2_0_0"
    ],
    "successful_runs": {
      "total_time": "30078938",
      "count": "1"
    }
  },
  {
    "file": "tezt/tests/dac.ml",
    "title": "Oxford: Testing DAC L1 integration (dac_observer_times_out_when_page_cannot_be_fetched)",
    "tags": [
      "admin_client",
      "client",
      "dac",
      "dac_node",
      "node",
      "oxford"
    ],
    "successful_runs": {
      "total_time": "7994413",
      "count": "1"
    }
  },
  {
    "file": "tezt/tests/dac.ml",
    "title": "Nairobi: Testing Full DAC infrastructure (test client commands (binary payload from file))",
    "tags": [
      "admin_client",
      "client",
      "dac",
      "dac_client",
      "dac_node",
      "nairobi",
      "node",
      "smart_rollup_node"
    ],
    "successful_runs": {
      "total_time": "6748960",
      "count": "1"
    }
  },
  {
    "file": "tezt/tests/dac.ml",
    "title": "Alpha: Testing Full DAC infrastructure (test Coordinator's post preimage)",
    "tags": [
      "regression",
      "admin_client",
      "alpha",
      "api_regression",
      "client",
      "dac",
      "dac_node",
      "node",
      "smart_rollup_node"
    ],
    "successful_runs": {
      "total_time": "3591738",
      "count": "1"
    }
  },
  {
    "file": "tezt/tests/dal.ml",
    "title": "Alpha: dal node startup",
    "tags": [
      "admin_client",
      "alpha",
      "client",
      "dal",
      "dal_node",
      "node",
      "tezos2"
    ],
    "successful_runs": {
      "total_time": "4123342",
      "count": "1"
    }
  }
]