
./src/riscv/riscv-sandbox rvemu --input tezt/tests/riscv-tests/generated/rv64ua-p-amoadd_d --posix
Received request to exit with code 0
rv64ua-p-amoadd_d: success

./src/riscv/riscv-sandbox rvemu --input tezt/tests/riscv-tests/generated/rv64ua-p-amoadd_w --posix
Received request to exit with code 0
rv64ua-p-amoadd_w: success

./src/riscv/riscv-sandbox rvemu --input tezt/tests/riscv-tests/generated/rv64ua-p-amoand_d --posix
Received request to exit with code 0
rv64ua-p-amoand_d: success

./src/riscv/riscv-sandbox rvemu --input tezt/tests/riscv-tests/generated/rv64ua-p-amoand_w --posix
Received request to exit with code 0
rv64ua-p-amoand_w: success

./src/riscv/riscv-sandbox rvemu --input tezt/tests/riscv-tests/generated/rv64ua-p-amomax_d --posix
Received request to exit with code 0
rv64ua-p-amomax_d: success

./src/riscv/riscv-sandbox rvemu --input tezt/tests/riscv-tests/generated/rv64ua-p-amomax_w --posix
Received request to exit with code 0
rv64ua-p-amomax_w: success

./src/riscv/riscv-sandbox rvemu --input tezt/tests/riscv-tests/generated/rv64ua-p-amomaxu_d --posix
Received request to exit with code 0
rv64ua-p-amomaxu_d: success

./src/riscv/riscv-sandbox rvemu --input tezt/tests/riscv-tests/generated/rv64ua-p-amomaxu_w --posix
Received request to exit with code 0
rv64ua-p-amomaxu_w: success

./src/riscv/riscv-sandbox rvemu --input tezt/tests/riscv-tests/generated/rv64ua-p-amomin_d --posix
Received request to exit with code 0
rv64ua-p-amomin_d: success

./src/riscv/riscv-sandbox rvemu --input tezt/tests/riscv-tests/generated/rv64ua-p-amomin_w --posix
Received request to exit with code 0
rv64ua-p-amomin_w: success

./src/riscv/riscv-sandbox rvemu --input tezt/tests/riscv-tests/generated/rv64ua-p-amominu_d --posix
Received request to exit with code 0
rv64ua-p-amominu_d: success

./src/riscv/riscv-sandbox rvemu --input tezt/tests/riscv-tests/generated/rv64ua-p-amominu_w --posix
Received request to exit with code 0
rv64ua-p-amominu_w: success

./src/riscv/riscv-sandbox rvemu --input tezt/tests/riscv-tests/generated/rv64ua-p-amoor_d --posix
Received request to exit with code 0
rv64ua-p-amoor_d: success

./src/riscv/riscv-sandbox rvemu --input tezt/tests/riscv-tests/generated/rv64ua-p-amoor_w --posix
Received request to exit with code 0
rv64ua-p-amoor_w: success

./src/riscv/riscv-sandbox rvemu --input tezt/tests/riscv-tests/generated/rv64ua-p-amoswap_d --posix
Received request to exit with code 0
rv64ua-p-amoswap_d: success

./src/riscv/riscv-sandbox rvemu --input tezt/tests/riscv-tests/generated/rv64ua-p-amoswap_w --posix
Received request to exit with code 0
rv64ua-p-amoswap_w: success

./src/riscv/riscv-sandbox rvemu --input tezt/tests/riscv-tests/generated/rv64ua-p-amoxor_d --posix
Received request to exit with code 0
rv64ua-p-amoxor_d: success

./src/riscv/riscv-sandbox rvemu --input tezt/tests/riscv-tests/generated/rv64ua-p-amoxor_w --posix
Received request to exit with code 0
rv64ua-p-amoxor_w: success

./src/riscv/riscv-sandbox rvemu --input tezt/tests/riscv-tests/generated/rv64ua-p-lrsc --posix
Received request to exit with code 0
rv64ua-p-lrsc: success

./src/riscv/riscv-sandbox rvemu --input tezt/tests/riscv-tests/generated/rv64ua-v-amoadd_d --posix
thread 'main' panicked at sandbox/src/commands/rvemu.rs:[LOCATION]:
Exception InstructionPageFault(2147494020) at 0x80002884: Invisible
note: run with `RUST_BACKTRACE=1` environment variable to display a backtrace
rv64ua-v-amoadd_d: fail

./src/riscv/riscv-sandbox rvemu --input tezt/tests/riscv-tests/generated/rv64ua-v-amoadd_w --posix
thread 'main' panicked at sandbox/src/commands/rvemu.rs:[LOCATION]:
Exception InstructionPageFault(2147494020) at 0x80002884: Invisible
note: run with `RUST_BACKTRACE=1` environment variable to display a backtrace
rv64ua-v-amoadd_w: fail

./src/riscv/riscv-sandbox rvemu --input tezt/tests/riscv-tests/generated/rv64ua-v-amoand_d --posix
thread 'main' panicked at sandbox/src/commands/rvemu.rs:[LOCATION]:
Exception InstructionPageFault(2147494020) at 0x80002884: Invisible
note: run with `RUST_BACKTRACE=1` environment variable to display a backtrace
rv64ua-v-amoand_d: fail

./src/riscv/riscv-sandbox rvemu --input tezt/tests/riscv-tests/generated/rv64ua-v-amoand_w --posix
thread 'main' panicked at sandbox/src/commands/rvemu.rs:[LOCATION]:
Exception InstructionPageFault(2147494020) at 0x80002884: Invisible
note: run with `RUST_BACKTRACE=1` environment variable to display a backtrace
rv64ua-v-amoand_w: fail

./src/riscv/riscv-sandbox rvemu --input tezt/tests/riscv-tests/generated/rv64ua-v-amomax_d --posix
thread 'main' panicked at sandbox/src/commands/rvemu.rs:[LOCATION]:
Exception InstructionPageFault(2147494020) at 0x80002884: Invisible
note: run with `RUST_BACKTRACE=1` environment variable to display a backtrace
rv64ua-v-amomax_d: fail

./src/riscv/riscv-sandbox rvemu --input tezt/tests/riscv-tests/generated/rv64ua-v-amomax_w --posix
thread 'main' panicked at sandbox/src/commands/rvemu.rs:[LOCATION]:
Exception InstructionPageFault(2147494020) at 0x80002884: Invisible
note: run with `RUST_BACKTRACE=1` environment variable to display a backtrace
rv64ua-v-amomax_w: fail

./src/riscv/riscv-sandbox rvemu --input tezt/tests/riscv-tests/generated/rv64ua-v-amomaxu_d --posix
thread 'main' panicked at sandbox/src/commands/rvemu.rs:[LOCATION]:
Exception InstructionPageFault(2147494020) at 0x80002884: Invisible
note: run with `RUST_BACKTRACE=1` environment variable to display a backtrace
rv64ua-v-amomaxu_d: fail

./src/riscv/riscv-sandbox rvemu --input tezt/tests/riscv-tests/generated/rv64ua-v-amomaxu_w --posix
thread 'main' panicked at sandbox/src/commands/rvemu.rs:[LOCATION]:
Exception InstructionPageFault(2147494020) at 0x80002884: Invisible
note: run with `RUST_BACKTRACE=1` environment variable to display a backtrace
rv64ua-v-amomaxu_w: fail

./src/riscv/riscv-sandbox rvemu --input tezt/tests/riscv-tests/generated/rv64ua-v-amomin_d --posix
thread 'main' panicked at sandbox/src/commands/rvemu.rs:[LOCATION]:
Exception InstructionPageFault(2147494020) at 0x80002884: Invisible
note: run with `RUST_BACKTRACE=1` environment variable to display a backtrace
rv64ua-v-amomin_d: fail

./src/riscv/riscv-sandbox rvemu --input tezt/tests/riscv-tests/generated/rv64ua-v-amomin_w --posix
thread 'main' panicked at sandbox/src/commands/rvemu.rs:[LOCATION]:
Exception InstructionPageFault(2147494020) at 0x80002884: Invisible
note: run with `RUST_BACKTRACE=1` environment variable to display a backtrace
rv64ua-v-amomin_w: fail

./src/riscv/riscv-sandbox rvemu --input tezt/tests/riscv-tests/generated/rv64ua-v-amominu_d --posix
thread 'main' panicked at sandbox/src/commands/rvemu.rs:[LOCATION]:
Exception InstructionPageFault(2147494020) at 0x80002884: Invisible
note: run with `RUST_BACKTRACE=1` environment variable to display a backtrace
rv64ua-v-amominu_d: fail

./src/riscv/riscv-sandbox rvemu --input tezt/tests/riscv-tests/generated/rv64ua-v-amominu_w --posix
thread 'main' panicked at sandbox/src/commands/rvemu.rs:[LOCATION]:
Exception InstructionPageFault(2147494020) at 0x80002884: Invisible
note: run with `RUST_BACKTRACE=1` environment variable to display a backtrace
rv64ua-v-amominu_w: fail

./src/riscv/riscv-sandbox rvemu --input tezt/tests/riscv-tests/generated/rv64ua-v-amoor_d --posix
thread 'main' panicked at sandbox/src/commands/rvemu.rs:[LOCATION]:
Exception InstructionPageFault(2147494020) at 0x80002884: Invisible
note: run with `RUST_BACKTRACE=1` environment variable to display a backtrace
rv64ua-v-amoor_d: fail

./src/riscv/riscv-sandbox rvemu --input tezt/tests/riscv-tests/generated/rv64ua-v-amoor_w --posix
thread 'main' panicked at sandbox/src/commands/rvemu.rs:[LOCATION]:
Exception InstructionPageFault(2147494020) at 0x80002884: Invisible
note: run with `RUST_BACKTRACE=1` environment variable to display a backtrace
rv64ua-v-amoor_w: fail

./src/riscv/riscv-sandbox rvemu --input tezt/tests/riscv-tests/generated/rv64ua-v-amoswap_d --posix
thread 'main' panicked at sandbox/src/commands/rvemu.rs:[LOCATION]:
Exception InstructionPageFault(2147494020) at 0x80002884: Invisible
note: run with `RUST_BACKTRACE=1` environment variable to display a backtrace
rv64ua-v-amoswap_d: fail

./src/riscv/riscv-sandbox rvemu --input tezt/tests/riscv-tests/generated/rv64ua-v-amoswap_w --posix
thread 'main' panicked at sandbox/src/commands/rvemu.rs:[LOCATION]:
Exception InstructionPageFault(2147494020) at 0x80002884: Invisible
note: run with `RUST_BACKTRACE=1` environment variable to display a backtrace
rv64ua-v-amoswap_w: fail

./src/riscv/riscv-sandbox rvemu --input tezt/tests/riscv-tests/generated/rv64ua-v-amoxor_d --posix
thread 'main' panicked at sandbox/src/commands/rvemu.rs:[LOCATION]:
Exception InstructionPageFault(2147494020) at 0x80002884: Invisible
note: run with `RUST_BACKTRACE=1` environment variable to display a backtrace
rv64ua-v-amoxor_d: fail

./src/riscv/riscv-sandbox rvemu --input tezt/tests/riscv-tests/generated/rv64ua-v-amoxor_w --posix
thread 'main' panicked at sandbox/src/commands/rvemu.rs:[LOCATION]:
Exception InstructionPageFault(2147494020) at 0x80002884: Invisible
note: run with `RUST_BACKTRACE=1` environment variable to display a backtrace
rv64ua-v-amoxor_w: fail

./src/riscv/riscv-sandbox rvemu --input tezt/tests/riscv-tests/generated/rv64ua-v-lrsc --posix
thread 'main' panicked at sandbox/src/commands/rvemu.rs:[LOCATION]:
Exception InstructionPageFault(2147494020) at 0x80002884: Invisible
note: run with `RUST_BACKTRACE=1` environment variable to display a backtrace
rv64ua-v-lrsc: fail
