
./src/riscv/riscv-sandbox rvemu --input tezt/tests/riscv-tests/generated/rv64ud-p-fadd --posix
Received request to exit with code 7
rv64ud-p-fadd: fail

./src/riscv/riscv-sandbox rvemu --input tezt/tests/riscv-tests/generated/rv64ud-p-fclass --posix
Received request to exit with code 5
rv64ud-p-fclass: fail

./src/riscv/riscv-sandbox rvemu --input tezt/tests/riscv-tests/generated/rv64ud-p-fcmp --posix
Received request to exit with code 21
rv64ud-p-fcmp: fail

./src/riscv/riscv-sandbox rvemu --input tezt/tests/riscv-tests/generated/rv64ud-p-fcvt --posix
Received request to exit with code 15
rv64ud-p-fcvt: fail

./src/riscv/riscv-sandbox rvemu --input tezt/tests/riscv-tests/generated/rv64ud-p-fcvt_w --posix
Received request to exit with code 5
rv64ud-p-fcvt_w: fail

./src/riscv/riscv-sandbox rvemu --input tezt/tests/riscv-tests/generated/rv64ud-p-fdiv --posix
Received request to exit with code 5
rv64ud-p-fdiv: fail

./src/riscv/riscv-sandbox rvemu --input tezt/tests/riscv-tests/generated/rv64ud-p-fmadd --posix
Received request to exit with code 7
rv64ud-p-fmadd: fail

./src/riscv/riscv-sandbox rvemu --input tezt/tests/riscv-tests/generated/rv64ud-p-fmin --posix
Received request to exit with code 41
rv64ud-p-fmin: fail

./src/riscv/riscv-sandbox rvemu --input tezt/tests/riscv-tests/generated/rv64ud-p-ldst --posix
Received request to exit with code 7
rv64ud-p-ldst: fail

./src/riscv/riscv-sandbox rvemu --input tezt/tests/riscv-tests/generated/rv64ud-p-move --posix
Received request to exit with code 81
rv64ud-p-move: fail

./src/riscv/riscv-sandbox rvemu --input tezt/tests/riscv-tests/generated/rv64ud-p-recoding --posix
Received request to exit with code 21
rv64ud-p-recoding: fail

./src/riscv/riscv-sandbox rvemu --input tezt/tests/riscv-tests/generated/rv64ud-p-structural --posix
Received request to exit with code 0
rv64ud-p-structural: success

./src/riscv/riscv-sandbox rvemu --input tezt/tests/riscv-tests/generated/rv64ud-v-fadd --posix
thread 'main' panicked at sandbox/src/commands/rvemu.rs:[LOCATION]:
Exception InstructionPageFault(2147494020) at 0x80002884: Invisible
note: run with `RUST_BACKTRACE=1` environment variable to display a backtrace
rv64ud-v-fadd: fail

./src/riscv/riscv-sandbox rvemu --input tezt/tests/riscv-tests/generated/rv64ud-v-fclass --posix
thread 'main' panicked at sandbox/src/commands/rvemu.rs:[LOCATION]:
Exception InstructionPageFault(2147494020) at 0x80002884: Invisible
note: run with `RUST_BACKTRACE=1` environment variable to display a backtrace
rv64ud-v-fclass: fail

./src/riscv/riscv-sandbox rvemu --input tezt/tests/riscv-tests/generated/rv64ud-v-fcmp --posix
thread 'main' panicked at sandbox/src/commands/rvemu.rs:[LOCATION]:
Exception InstructionPageFault(2147494020) at 0x80002884: Invisible
note: run with `RUST_BACKTRACE=1` environment variable to display a backtrace
rv64ud-v-fcmp: fail

./src/riscv/riscv-sandbox rvemu --input tezt/tests/riscv-tests/generated/rv64ud-v-fcvt --posix
thread 'main' panicked at sandbox/src/commands/rvemu.rs:[LOCATION]:
Exception InstructionPageFault(2147494020) at 0x80002884: Invisible
note: run with `RUST_BACKTRACE=1` environment variable to display a backtrace
rv64ud-v-fcvt: fail

./src/riscv/riscv-sandbox rvemu --input tezt/tests/riscv-tests/generated/rv64ud-v-fcvt_w --posix
thread 'main' panicked at sandbox/src/commands/rvemu.rs:[LOCATION]:
Exception InstructionPageFault(2147494020) at 0x80002884: Invisible
note: run with `RUST_BACKTRACE=1` environment variable to display a backtrace
rv64ud-v-fcvt_w: fail

./src/riscv/riscv-sandbox rvemu --input tezt/tests/riscv-tests/generated/rv64ud-v-fdiv --posix
thread 'main' panicked at sandbox/src/commands/rvemu.rs:[LOCATION]:
Exception InstructionPageFault(2147494020) at 0x80002884: Invisible
note: run with `RUST_BACKTRACE=1` environment variable to display a backtrace
rv64ud-v-fdiv: fail

./src/riscv/riscv-sandbox rvemu --input tezt/tests/riscv-tests/generated/rv64ud-v-fmadd --posix
thread 'main' panicked at sandbox/src/commands/rvemu.rs:[LOCATION]:
Exception InstructionPageFault(2147494020) at 0x80002884: Invisible
note: run with `RUST_BACKTRACE=1` environment variable to display a backtrace
rv64ud-v-fmadd: fail

./src/riscv/riscv-sandbox rvemu --input tezt/tests/riscv-tests/generated/rv64ud-v-fmin --posix
thread 'main' panicked at sandbox/src/commands/rvemu.rs:[LOCATION]:
Exception InstructionPageFault(2147494020) at 0x80002884: Invisible
note: run with `RUST_BACKTRACE=1` environment variable to display a backtrace
rv64ud-v-fmin: fail

./src/riscv/riscv-sandbox rvemu --input tezt/tests/riscv-tests/generated/rv64ud-v-ldst --posix
thread 'main' panicked at sandbox/src/commands/rvemu.rs:[LOCATION]:
Exception InstructionPageFault(2147494020) at 0x80002884: Invisible
note: run with `RUST_BACKTRACE=1` environment variable to display a backtrace
rv64ud-v-ldst: fail

./src/riscv/riscv-sandbox rvemu --input tezt/tests/riscv-tests/generated/rv64ud-v-move --posix
thread 'main' panicked at sandbox/src/commands/rvemu.rs:[LOCATION]:
Exception InstructionPageFault(2147494020) at 0x80002884: Invisible
note: run with `RUST_BACKTRACE=1` environment variable to display a backtrace
rv64ud-v-move: fail

./src/riscv/riscv-sandbox rvemu --input tezt/tests/riscv-tests/generated/rv64ud-v-recoding --posix
thread 'main' panicked at sandbox/src/commands/rvemu.rs:[LOCATION]:
Exception InstructionPageFault(2147494020) at 0x80002884: Invisible
note: run with `RUST_BACKTRACE=1` environment variable to display a backtrace
rv64ud-v-recoding: fail

./src/riscv/riscv-sandbox rvemu --input tezt/tests/riscv-tests/generated/rv64ud-v-structural --posix
thread 'main' panicked at sandbox/src/commands/rvemu.rs:[LOCATION]:
Exception InstructionPageFault(2147494020) at 0x80002884: Invisible
note: run with `RUST_BACKTRACE=1` environment variable to display a backtrace
rv64ud-v-structural: fail
