
./src/riscv/riscv-sandbox rvemu --input tezt/tests/riscv-tests/generated/rv64ssvnapot-p-napot --posix
thread 'main' panicked at sandbox/src/commands/rvemu.rs:[LOCATION]:
Exception EnvironmentCallFromMMode at 0x80000370: Requested
note: run with `RUST_BACKTRACE=1` environment variable to display a backtrace
rv64ssvnapot-p-napot: fail
